%YAML 1.1
%TAG !u! tag:unity3d.com,2011:
--- !u!114 &11400000
MonoBehaviour:
  m_CorrespondingSourceObject: {fileID: 0}
  m_PrefabInstance: {fileID: 0}
  m_PrefabAsset: {fileID: 0}
  m_GameObject: {fileID: 0}
  m_Enabled: 1
  m_EditorHideFlags: 0
  m_Script: {fileID: 1706033464, guid: d2e201569828c809f3d2502f0471d348, type: 3}
  m_Name: iscScavBackpack
  m_EditorClassIdentifier:
  prefab: {fileID: 0}
  sendOverNetwork: 1
  hullSize: 1
  nodeGraphType: 0
  requiredFlags: 0
  forbiddenFlags: 0
  directorCreditCost: 0
  occupyPosition: 1
  orientToFloor: 1
  slightlyRandomizeOrientation: 0
  skipSpawnWhenSacrificeArtifactEnabled: 0
