%YAML 1.1
%TAG !u! tag:unity3d.com,2011:
--- !u!114 &11400000
MonoBehaviour:
  m_ObjectHideFlags: 0
  m_CorrespondingSourceObject: {fileID: 0}
  m_PrefabInstance: {fileID: 0}
  m_PrefabAsset: {fileID: 0}
  m_GameObject: {fileID: 0}
  m_Enabled: 0
  m_EditorHideFlags: 0
  m_Script: {fileID: 89795172, guid: 06dd3d5416bf43ea368cc39ff96e6d5a, type: 3}
  m_Name: Investor.SkillStates.Lobby
  m_EditorClassIdentifier: 
  targetType:
    assemblyQualifiedName: Investor.SkillStates.Lobby, InvestorAssemblyDef, Version=0.0.0.0,
      Culture=neutral, PublicKeyToken=null
  serializedFieldsCollection:
    serializedFields:
    - fieldName: delay
      fieldValue:
        stringValue: 2.5
        objectValue: {fileID: 0}
    - fieldName: animDuration
      fieldValue:
        stringValue: 2
        objectValue: {fileID: 0}
    - fieldName: radius
      fieldValue:
        stringValue: 1000
        objectValue: {fileID: 0}
    - fieldName: procCoeff
      fieldValue:
        stringValue: 1
        objectValue: {fileID: 0}
    - fieldName: decimateCostCoefficient
      fieldValue:
        stringValue: 0.1
        objectValue: {fileID: 0}
    - fieldName: damagePerNetWorthBaseLevel
      fieldValue:
        stringValue: 0.1
        objectValue: {fileID: 0}
