%YAML 1.1
%TAG !u! tag:unity3d.com,2011:
--- !u!114 &11400000
MonoBehaviour:
  m_ObjectHideFlags: 0
  m_CorrespondingSourceObject: {fileID: 0}
  m_PrefabInstance: {fileID: 0}
  m_PrefabAsset: {fileID: 0}
  m_GameObject: {fileID: 0}
  m_Enabled: 1
  m_EditorHideFlags: 0
  m_Script: {fileID: 825212068, guid: d2e201569828c809f3d2502f0471d348, type: 3}
  m_Name: goolake
  m_EditorClassIdentifier: 
  nameToken: 
  subtitleToken: 
  loreToken: 
  stageOrder: 0
  previewTexture: {fileID: 0}
  portalMaterial: {fileID: 0}
  portalSelectionMessageString: 
  dioramaPrefab: {fileID: 0}
  sceneType: 1
  mainTrack: {fileID: 11400000, guid: 400618d0cb771454aaa112a1ff242616, type: 2}
  bossTrack: {fileID: 11400000, guid: 28e992610c3ef0a4980e02a93506a020, type: 2}
  isOfflineScene: 0
  suppressPlayerEntry: 0
  suppressNpcEntry: 0
  destinations:
  - {fileID: 11400000, guid: e8cea61f61604f9478902e57efd7e99b, type: 2}
  - {fileID: 11400000, guid: 0ba07a011e2383c4797fce202c26ab5a, type: 2}
  preferredPortalPrefab: {fileID: 0}
  sceneNameOverrides: []
