%YAML 1.1
%TAG !u! tag:unity3d.com,2011:
--- !u!114 &11400000
MonoBehaviour:
  m_ObjectHideFlags: 0
  m_CorrespondingSourceObject: {fileID: 0}
  m_PrefabInstance: {fileID: 0}
  m_PrefabAsset: {fileID: 0}
  m_GameObject: {fileID: 0}
  m_Enabled: 1
  m_EditorHideFlags: 0
  m_Script: {fileID: 825212068, guid: d2e201569828c809f3d2502f0471d348, type: 3}
  m_Name: intro
  m_EditorClassIdentifier: 
  nameToken: 
  subtitleToken: 
  loreToken: 
  stageOrder: 0
  previewTexture: {fileID: 0}
  portalMaterial: {fileID: 0}
  portalSelectionMessageString: 
  dioramaPrefab: {fileID: 0}
  sceneType: 0
  mainTrack: {fileID: 11400000, guid: 599762a9fdf017a4e9d89787ed3e86e1, type: 2}
  bossTrack: {fileID: 0}
  isOfflineScene: 1
  suppressPlayerEntry: 0
  suppressNpcEntry: 0
  destinations: []
  preferredPortalPrefab: {fileID: 0}
  sceneNameOverrides: []
