%YAML 1.1
%TAG !u! tag:unity3d.com,2011:
--- !u!114 &11400000
MonoBehaviour:
  m_ObjectHideFlags: 0
  m_CorrespondingSourceObject: {fileID: 0}
  m_PrefabInstance: {fileID: 0}
  m_PrefabAsset: {fileID: 0}
  m_GameObject: {fileID: 0}
  m_Enabled: 1
  m_EditorHideFlags: 0
  m_Script: {fileID: 825212068, guid: d2e201569828c809f3d2502f0471d348, type: 3}
  m_Name: moon2
  m_EditorClassIdentifier: 
  nameToken: 
  subtitleToken: 
  loreToken: 
  stageOrder: 0
  previewTexture: {fileID: 0}
  portalMaterial: {fileID: 0}
  portalSelectionMessageString: 
  dioramaPrefab: {fileID: 0}
  sceneType: 1
  mainTrack: {fileID: 11400000, guid: 55c51b5de11a141449a9125a1538b9b4, type: 2}
  bossTrack: {fileID: 11400000, guid: 395cbae9661d01e4db35217e1d3dd144, type: 2}
  isOfflineScene: 0
  suppressPlayerEntry: 0
  suppressNpcEntry: 0
  destinations: []
  preferredPortalPrefab: {fileID: 0}
  sceneNameOverrides: []
