{
    "name": "EntityStateEditor",
    "references": [
        "InvestorAssemblyDef"
    ],
    "optionalUnityReferences": [],
    "includePlatforms": [
        "Editor"
    ],
    "excludePlatforms": [],
    "allowUnsafeCode": false,
    "overrideReferences": true,
    "precompiledReferences": [
        "Assembly-CSharp.dll"
    ],
    "autoReferenced": true,
    "defineConstraints": []
}