%YAML 1.1
%TAG !u! tag:unity3d.com,2011:
--- !u!114 &-5155633585708372029
MonoBehaviour:
  m_ObjectHideFlags: 0
  m_CorrespondingSourceObject: {fileID: 0}
  m_PrefabInstance: {fileID: 0}
  m_PrefabAsset: {fileID: 0}
  m_GameObject: {fileID: 0}
  m_Enabled: 1
  m_EditorHideFlags: 0
  m_Script: {fileID: 11500000, guid: f22bb7fd1d3b56a48bc52f8e407901d6, type: 3}
  m_Name: MysticsRisky2Utils
  m_EditorClassIdentifier: 
  Errored: 0
  ErrorMessage: 
  ErrorStacktrace: 
  StagingPaths: []
  Author: TheMysticSword
  Name: MysticsRisky2Utils
  Description: Library for TheMysticSword's mods
  Version: 1.4.11
  Dependencies: 
  - {fileID: 11400000, guid: 2d4d09ec817c24698d35dc9bf0704fdc, type: 2}
  - {fileID: 11400000, guid: 7fb5b3d290bed6011ed7e8daf230df89, type: 2}
  - {fileID: 11400000, guid: bff73382628f698c89c1d9ae43c8f350, type: 2}
--- !u!114 &11400000
MonoBehaviour:
  m_ObjectHideFlags: 0
  m_CorrespondingSourceObject: {fileID: 0}
  m_PrefabInstance: {fileID: 0}
  m_PrefabAsset: {fileID: 0}
  m_GameObject: {fileID: 0}
  m_Enabled: 1
  m_EditorHideFlags: 0
  m_Script: {fileID: 11500000, guid: e563561e08b6a3642a487177f5cfbb37, type: 3}
  m_Name: MysticsRisky2Utils
  m_EditorClassIdentifier: 
  Data:
  - {fileID: -5155633585708372029}
  identity: {fileID: -5155633585708372029}