%YAML 1.1
%TAG !u! tag:unity3d.com,2011:
--- !u!48 &4800000
Shader:
  m_CorrespondingSourceObject: {fileID: 0}
  m_PrefabInstance: {fileID: 0}
  m_PrefabAsset: {fileID: 0}
  m_Name:
  m_ParsedForm:
    m_PropInfo:
      m_Props: []
    m_SubShaders:
    - m_Passes: []
      m_Tags:
        tags: {}
      m_LOD: 0
    m_Name: Hidden/Nature/Terrain/Utilities
    m_CustomEditorName:
    m_FallbackName:
    m_Dependencies: []
    m_DisableNoSubshadersMessage: 0
  platforms:
  - 4
  offsets:
  - 0
  compressedLengths:
  - 5
  decompressedLengths:
  - 4
  compressedBlob: 4000000000
  m_Dependencies: []
