%YAML 1.1
%TAG !u! tag:unity3d.com,2011:
--- !u!114 &-5155633585708372029
MonoBehaviour:
  m_ObjectHideFlags: 0
  m_CorrespondingSourceObject: {fileID: 0}
  m_PrefabInstance: {fileID: 0}
  m_PrefabAsset: {fileID: 0}
  m_GameObject: {fileID: 0}
  m_Enabled: 1
  m_EditorHideFlags: 0
  m_Script: {fileID: 11500000, guid: f22bb7fd1d3b56a48bc52f8e407901d6, type: 3}
  m_Name: FixPluginTypesSerialization
  m_EditorClassIdentifier: 
  Errored: 0
  ErrorMessage: 
  ErrorStacktrace: 
  StagingPaths: []
  Author: RiskofThunder
  Name: FixPluginTypesSerialization
  Description: Fix custom Serializable structs and such not properly getting deserialized by Unity.
  Version: 1.0.1
  Dependencies: 
  - {fileID: 11400000, guid: 2d4d09ec817c24698d35dc9bf0704fdc, type: 2}
--- !u!114 &11400000
MonoBehaviour:
  m_ObjectHideFlags: 0
  m_CorrespondingSourceObject: {fileID: 0}
  m_PrefabInstance: {fileID: 0}
  m_PrefabAsset: {fileID: 0}
  m_GameObject: {fileID: 0}
  m_Enabled: 1
  m_EditorHideFlags: 0
  m_Script: {fileID: 11500000, guid: e563561e08b6a3642a487177f5cfbb37, type: 3}
  m_Name: FixPluginTypesSerialization
  m_EditorClassIdentifier: 
  Data:
  - {fileID: -5155633585708372029}
  identity: {fileID: -5155633585708372029}