%YAML 1.1
%TAG !u! tag:unity3d.com,2011:
--- !u!114 &11400000
MonoBehaviour:
  m_CorrespondingSourceObject: {fileID: 0}
  m_PrefabInstance: {fileID: 0}
  m_PrefabAsset: {fileID: 0}
  m_GameObject: {fileID: 0}
  m_Enabled: 1
  m_EditorHideFlags: 0
  m_Script: {fileID: -1673569841, guid: d2e201569828c809f3d2502f0471d348, type: 3}
  m_Name: cscHermitCrab
  m_EditorClassIdentifier:
  prefab: {fileID: 0}
  sendOverNetwork: 1
  hullSize: 0
  nodeGraphType: 0
  requiredFlags: 1
  forbiddenFlags: 4
  directorCreditCost: 25
  occupyPosition: 0
  noElites: 0
  forbiddenAsBoss: 0
  loadout:
    bodyLoadouts: []
