%YAML 1.1
%TAG !u! tag:unity3d.com,2011:
--- !u!114 &11400000
MonoBehaviour:
  m_ObjectHideFlags: 0
  m_CorrespondingSourceObject: {fileID: 0}
  m_PrefabInstance: {fileID: 0}
  m_PrefabAsset: {fileID: 0}
  m_GameObject: {fileID: 0}
  m_Enabled: 1
  m_EditorHideFlags: 0
  m_Script: {fileID: 1391837873, guid: 06dd3d5416bf43ea368cc39ff96e6d5a, type: 3}
  m_Name: LobbySkillDef
  m_EditorClassIdentifier: 
  skillName: Lobby
  skillNameToken: MYNACHMELYN_INVESTOR_BODY_SECONDARY_LOBBY_NAME
  skillDescriptionToken: MYNACHMELYN_INVESTOR_BODY_SECONDARY_LOBBY_DESCRIPTION
  keywordTokens: []
  icon: {fileID: 0}
  activationStateMachineName: Ability
  activationState:
    _typeName: Investor.SkillStates.Lobby, InvestorAssemblyDef
  interruptPriority: 1
  baseRechargeInterval: 4
  baseMaxStock: 1
  rechargeStock: 1
  requiredStock: 1
  stockToConsume: 1
  resetCooldownTimerOnUse: 0
  fullRestockOnAssign: 1
  dontAllowPastMaxStocks: 0
  beginSkillCooldownOnSkillEnd: 1
  cancelSprintingOnActivation: 1
  forceSprintDuringState: 0
  canceledFromSprinting: 0
  isCombatSkill: 1
  mustKeyPress: 0
