%YAML 1.1
%TAG !u! tag:unity3d.com,2011:
--- !u!114 &11400000
MonoBehaviour:
  m_ObjectHideFlags: 0
  m_CorrespondingSourceObject: {fileID: 0}
  m_PrefabInstance: {fileID: 0}
  m_PrefabAsset: {fileID: 0}
  m_GameObject: {fileID: 0}
  m_Enabled: 1
  m_EditorHideFlags: 0
  m_Script: {fileID: -104859921, guid: 06dd3d5416bf43ea368cc39ff96e6d5a, type: 3}
  m_Name: ArtifactWorldMonsters
  m_EditorClassIdentifier: 
  categories:
  - name: Champions
    cards:
    - spawnCard: {fileID: 11400000, guid: 58b52905acd9d2b4fa50329ab8922a07, type: 2}
      selectionWeight: 1
      spawnDistance: 0
      allowAmbushSpawn: 1
      preventOverhead: 0
      minimumStageCompletions: 0
      requiredUnlockable: 
      forbiddenUnlockable: 
    - spawnCard: {fileID: 11400000, guid: c48672e7932e82d4da01e8e2a7032a3a, type: 2}
      selectionWeight: 1
      spawnDistance: 0
      allowAmbushSpawn: 1
      preventOverhead: 0
      minimumStageCompletions: 0
      requiredUnlockable: 
      forbiddenUnlockable: 
    - spawnCard: {fileID: 11400000, guid: 667fa616f4be5464c847d2b833afdd4a, type: 2}
      selectionWeight: 1
      spawnDistance: 2
      allowAmbushSpawn: 1
      preventOverhead: 0
      minimumStageCompletions: 0
      requiredUnlockable: 
      forbiddenUnlockable: 
    selectionWeight: 3
  - name: Minibosses
    cards:
    - spawnCard: {fileID: 11400000, guid: cf731f4ddb2b3a441801cd4ebf6e1050, type: 2}
      selectionWeight: 1
      spawnDistance: 0
      allowAmbushSpawn: 1
      preventOverhead: 0
      minimumStageCompletions: 0
      requiredUnlockable: 
      forbiddenUnlockable: 
    - spawnCard: {fileID: 11400000, guid: a0761354d1caec244930509d010b7c37, type: 2}
      selectionWeight: 1
      spawnDistance: 0
      allowAmbushSpawn: 1
      preventOverhead: 0
      minimumStageCompletions: 0
      requiredUnlockable: 
      forbiddenUnlockable: 
    selectionWeight: 3
  - name: Basic Monsters
    cards:
    - spawnCard: {fileID: 11400000, guid: 04034874e7c109f4a8ad2c483a60f172, type: 2}
      selectionWeight: 1
      spawnDistance: 0
      allowAmbushSpawn: 1
      preventOverhead: 1
      minimumStageCompletions: 0
      requiredUnlockable: 
      forbiddenUnlockable: 
    - spawnCard: {fileID: 11400000, guid: 29341b2a42eb1e0428cdde99612a9407, type: 2}
      selectionWeight: 1
      spawnDistance: 0
      allowAmbushSpawn: 1
      preventOverhead: 1
      minimumStageCompletions: 0
      requiredUnlockable: 
      forbiddenUnlockable: 
    - spawnCard: {fileID: 11400000, guid: 40756a4a00f355a409fee7b1a2b08700, type: 2}
      selectionWeight: 1
      spawnDistance: 0
      allowAmbushSpawn: 1
      preventOverhead: 0
      minimumStageCompletions: 0
      requiredUnlockable: 
      forbiddenUnlockable: 
    selectionWeight: 3
  - name: Special
    cards:
    - spawnCard: {fileID: 11400000, guid: c36314a39996c214aa41f0d27c0252ab, type: 2}
      selectionWeight: 1
      spawnDistance: 0
      allowAmbushSpawn: 0
      preventOverhead: 0
      minimumStageCompletions: 5
      requiredUnlockable: 
      forbiddenUnlockable: 
    selectionWeight: 1
