%YAML 1.1
%TAG !u! tag:unity3d.com,2011:
--- !u!114 &11400000
MonoBehaviour:
  m_ObjectHideFlags: 0
  m_CorrespondingSourceObject: {fileID: 0}
  m_PrefabInstance: {fileID: 0}
  m_PrefabAsset: {fileID: 0}
  m_GameObject: {fileID: 0}
  m_Enabled: 1
  m_EditorHideFlags: 0
  m_Script: {fileID: -104859921, guid: 06dd3d5416bf43ea368cc39ff96e6d5a, type: 3}
  m_Name: GolemFamily
  m_EditorClassIdentifier: 
  categories:
  - name: Champions
    cards:
    - spawnCard: {fileID: 11400000, guid: d7fde9c70ee91684f85b876a1efea72c, type: 2}
      selectionWeight: 1
      spawnDistance: 0
      allowAmbushSpawn: 1
      preventOverhead: 0
      minimumStageCompletions: 0
      requiredUnlockable: 
      forbiddenUnlockable: 
    selectionWeight: 2
  - name: Minibosses
    cards:
    - spawnCard: {fileID: 11400000, guid: a0761354d1caec244930509d010b7c37, type: 2}
      selectionWeight: 1
      spawnDistance: 0
      allowAmbushSpawn: 1
      preventOverhead: 0
      minimumStageCompletions: 0
      requiredUnlockable: 
      forbiddenUnlockable: 
    selectionWeight: 6
