%YAML 1.1
%TAG !u! tag:unity3d.com,2011:
--- !u!114 &11400000
MonoBehaviour:
  m_ObjectHideFlags: 0
  m_CorrespondingSourceObject: {fileID: 0}
  m_PrefabInstance: {fileID: 0}
  m_PrefabAsset: {fileID: 0}
  m_GameObject: {fileID: 0}
  m_Enabled: 1
  m_EditorHideFlags: 0
  m_Script: {fileID: -104859921, guid: 06dd3d5416bf43ea368cc39ff96e6d5a, type: 3}
  m_Name: SkyMeadowMonsters
  m_EditorClassIdentifier: 
  categories:
  - name: Champions
    cards:
    - spawnCard: {fileID: 11400000, guid: 1b69170a3fb405443944ae73beb90cf1, type: 2}
      selectionWeight: 1
      spawnDistance: 0
      allowAmbushSpawn: 1
      preventOverhead: 0
      minimumStageCompletions: 0
      requiredUnlockable: 
      forbiddenUnlockable: 
    - spawnCard: {fileID: 11400000, guid: eeef1111f657b984593eb084767a9ec4, type: 2}
      selectionWeight: 1
      spawnDistance: 0
      allowAmbushSpawn: 1
      preventOverhead: 0
      minimumStageCompletions: 0
      requiredUnlockable: 
      forbiddenUnlockable: 
    - spawnCard: {fileID: 11400000, guid: 667fa616f4be5464c847d2b833afdd4a, type: 2}
      selectionWeight: 1
      spawnDistance: 0
      allowAmbushSpawn: 1
      preventOverhead: 0
      minimumStageCompletions: 0
      requiredUnlockable: 
      forbiddenUnlockable: 
    selectionWeight: 2
  - name: Minibosses
    cards:
    - spawnCard: {fileID: 11400000, guid: 66e5d11df4b4d0544b460c482964fc1a, type: 2}
      selectionWeight: 1
      spawnDistance: 0
      allowAmbushSpawn: 1
      preventOverhead: 1
      minimumStageCompletions: 0
      requiredUnlockable: 
      forbiddenUnlockable: 
    - spawnCard: {fileID: 11400000, guid: 0976c2be9a31a53438382c3b539e7b9c, type: 2}
      selectionWeight: 1
      spawnDistance: 0
      allowAmbushSpawn: 1
      preventOverhead: 0
      minimumStageCompletions: 0
      requiredUnlockable: 
      forbiddenUnlockable: 
    - spawnCard: {fileID: 11400000, guid: cf731f4ddb2b3a441801cd4ebf6e1050, type: 2}
      selectionWeight: 1
      spawnDistance: 0
      allowAmbushSpawn: 1
      preventOverhead: 0
      minimumStageCompletions: 0
      requiredUnlockable: 
      forbiddenUnlockable: 
    - spawnCard: {fileID: 11400000, guid: 3e45580bc9f60fe45a73765e55c9461e, type: 2}
      selectionWeight: 1
      spawnDistance: 0
      allowAmbushSpawn: 1
      preventOverhead: 0
      minimumStageCompletions: 5
      requiredUnlockable: 
      forbiddenUnlockable: 
    selectionWeight: 2
  - name: Basic Monsters
    cards:
    - spawnCard: {fileID: 11400000, guid: 29341b2a42eb1e0428cdde99612a9407, type: 2}
      selectionWeight: 1
      spawnDistance: 0
      allowAmbushSpawn: 1
      preventOverhead: 1
      minimumStageCompletions: 0
      requiredUnlockable: 
      forbiddenUnlockable: 
    - spawnCard: {fileID: 11400000, guid: 6d836ba52fa12e34aaa6ba2a93478543, type: 2}
      selectionWeight: 1
      spawnDistance: 0
      allowAmbushSpawn: 1
      preventOverhead: 0
      minimumStageCompletions: 0
      requiredUnlockable: 
      forbiddenUnlockable: 
    - spawnCard: {fileID: 11400000, guid: a5a31859f0d8aac4a80af3b31fb0a1fc, type: 2}
      selectionWeight: 1
      spawnDistance: 0
      allowAmbushSpawn: 1
      preventOverhead: 1
      minimumStageCompletions: 0
      requiredUnlockable: 
      forbiddenUnlockable: 
    selectionWeight: 3
  - name: Special
    cards:
    - spawnCard: {fileID: 11400000, guid: c36314a39996c214aa41f0d27c0252ab, type: 2}
      selectionWeight: 1
      spawnDistance: 0
      allowAmbushSpawn: 0
      preventOverhead: 0
      minimumStageCompletions: 5
      requiredUnlockable: 
      forbiddenUnlockable: 
    selectionWeight: 1
