%YAML 1.1
%TAG !u! tag:unity3d.com,2011:
--- !u!181963792 &2655988077585873504
Preset:
  m_ObjectHideFlags: 0
  m_CorrespondingSourceObject: {fileID: 0}
  m_PrefabInstance: {fileID: 0}
  m_PrefabAsset: {fileID: 0}
  m_Name: BlackBeachMeandiumBoulder
  m_TargetType:
    m_NativeTypeID: 114
    m_ManagedTypePPtr: {fileID: -586746124, guid: d2e201569828c809f3d2502f0471d348,
      type: 3}
    m_ManagedTypeFallback: 
  m_Properties:
  - target: {fileID: 0}
    propertyPath: m_Enabled
    value: 1
    objectReference: {fileID: 0}
  - target: {fileID: 0}
    propertyPath: m_EditorHideFlags
    value: 0
    objectReference: {fileID: 0}
  - target: {fileID: 0}
    propertyPath: m_EditorClassIdentifier
    value: 
    objectReference: {fileID: 0}
  - target: {fileID: 0}
    propertyPath: RootPrefabPath
    value: prefabs/stagedisplay/BlackbeachDioramaDisplay
    objectReference: {fileID: 0}
  - target: {fileID: 0}
    propertyPath: PrefabPath
    value: Terrain/mdlBBBoulderMediumRound1 (28)
    objectReference: {fileID: 0}
