{
    "name": "InvestorAssemblyDef",
    "references": [
        "Wwise"
    ],
    "optionalUnityReferences": [],
    "includePlatforms": [],
    "excludePlatforms": [],
    "allowUnsafeCode": false,
    "overrideReferences": true,
    "precompiledReferences": [
        "Assembly-CSharp.Public.dll",
        "BepInEx.dll",
        "R2API.dll",
        "MMHOOK_Assembly-CSharp.dll",
        "StubbedShaderConverter.dll",
        "Mono.Cecil.dll",
        "MonoMod.Utils.dll",
        "MoonstormSharedUtils.dll",
        "HGCSharpUtils.dll"
    ],
    "autoReferenced": true,
    "defineConstraints": []
}