%YAML 1.1
%TAG !u! tag:unity3d.com,2011:
--- !u!114 &11400000
MonoBehaviour:
  m_ObjectHideFlags: 0
  m_CorrespondingSourceObject: {fileID: 0}
  m_PrefabInstance: {fileID: 0}
  m_PrefabAsset: {fileID: 0}
  m_GameObject: {fileID: 0}
  m_Enabled: 1
  m_EditorHideFlags: 0
  m_Script: {fileID: 11500000, guid: e563561e08b6a3642a487177f5cfbb37, type: 3}
  m_Name: InvestorManifest
  m_EditorClassIdentifier: 
  Data:
  - {fileID: 114211852988908172}
  - {fileID: 114107831304456238}
  - {fileID: 114431642618062350}
  identity: {fileID: 114211852988908172}
--- !u!114 &114107831304456238
MonoBehaviour:
  m_ObjectHideFlags: 1
  m_CorrespondingSourceObject: {fileID: 0}
  m_PrefabInstance: {fileID: 0}
  m_PrefabAsset: {fileID: 0}
  m_GameObject: {fileID: 0}
  m_Enabled: 1
  m_EditorHideFlags: 0
  m_Script: {fileID: 11500000, guid: 2b7e13dda513544419a89926bd12ad8a, type: 3}
  m_Name: AssemblyDefinitions
  m_EditorClassIdentifier: 
  Errored: 0
  ErrorMessage: 
  ErrorStacktrace: 
  StagingPaths:
  - <ManifestPluginStaging>
  definitions:
  - {fileID: 5897886265953266890, guid: 2a5e8b14ef492b745ab7803e8315070d, type: 3}
--- !u!114 &114211852988908172
MonoBehaviour:
  m_ObjectHideFlags: 1
  m_CorrespondingSourceObject: {fileID: 0}
  m_PrefabInstance: {fileID: 0}
  m_PrefabAsset: {fileID: 0}
  m_GameObject: {fileID: 0}
  m_Enabled: 1
  m_EditorHideFlags: 0
  m_Script: {fileID: 11500000, guid: f22bb7fd1d3b56a48bc52f8e407901d6, type: 3}
  m_Name: ManifestIdentity
  m_EditorClassIdentifier: 
  Errored: 0
  ErrorMessage: 
  ErrorStacktrace: 
  StagingPaths:
  - <ManifestPluginStaging>
  Author: MynachMelyn (Alex James)
  Name: The Investor
  Description: Adds the Investor as a playable survivor.
  Version: 0.0.1
  Dependencies:
  - {fileID: 11400000, guid: 2d4d09ec817c24698d35dc9bf0704fdc, type: 2}
  - {fileID: 11400000, guid: 7fb5b3d290bed6011ed7e8daf230df89, type: 2}
  - {fileID: 11400000, guid: bff73382628f698c89c1d9ae43c8f350, type: 2}
  - {fileID: 11400000, guid: a8ac6a3e325999651bd53f63760e6ff0, type: 2}
--- !u!114 &114431642618062350
MonoBehaviour:
  m_ObjectHideFlags: 1
  m_CorrespondingSourceObject: {fileID: 0}
  m_PrefabInstance: {fileID: 0}
  m_PrefabAsset: {fileID: 0}
  m_GameObject: {fileID: 0}
  m_Enabled: 1
  m_EditorHideFlags: 0
  m_Script: {fileID: 11500000, guid: 17d1008b78cb6e846889b7778282fbef, type: 3}
  m_Name: AssetBundleDefinitions
  m_EditorClassIdentifier: 
  Errored: 0
  ErrorMessage: 
  ErrorStacktrace: 
  StagingPaths:
  - <ManifestPluginStaging>
  assetBundles:
  - assetBundleName: investorassetbundle
    assets:
    - {fileID: 11400000, guid: c2e48441706eae74bb512b503d9bacda, type: 2}
    - {fileID: 102900000, guid: 0f1b5cda1879b134697c8a828dd83eb7, type: 3}
