%YAML 1.1
%TAG !u! tag:unity3d.com,2011:
--- !u!114 &11400000
MonoBehaviour:
  m_ObjectHideFlags: 0
  m_CorrespondingSourceObject: {fileID: 0}
  m_PrefabInstance: {fileID: 0}
  m_PrefabAsset: {fileID: 0}
  m_GameObject: {fileID: 0}
  m_Enabled: 1
  m_EditorHideFlags: 0
  m_Script: {fileID: 11500000, guid: 2f9af1c6015733a42be940cc462aa7ed, type: 3}
  m_Name: Log 189
  m_EditorClassIdentifier: 
  pipeline: {fileID: 11400000, guid: c2cb30752f3f3e34dbcc46f5b79e500f, type: 2}
  creationDate:
    ticks: 637751028198076517
  entries:
  - logLevel: 0
    internalTime:
      ticks: 637751028907595947
    message: '[Stage](assetlink://Assets%2fInvestorMod%2fInvestor+Survivor%2fStage.asset)
      Finished execution'
    context: []
  - logLevel: 0
    internalTime:
      ticks: 637751028907525923
    message: "[Stage(4 - Copy)](assetlink://Assets%2fInvestorMod%2fInvestor+Survivor%2fStage.asset)
      ``` Q:\\Unity Projects\\InvestorROR2\\ThunderKit\\Staging\\The Investor\\plugins\\The
      Investor\\ ``` to ``` C:\\Program Files (x86)\\Steam\\steamapps\\common\\Risk
      of Rain 2\\BepInEx\\plugins\\The Investor\\plugins\\The Investor\\ ```\r\n\r\n\r\nCopied
      ``` Q:/Unity Projects/InvestorROR2/ThunderKit/Staging/The Investor/plugins/The
      Investor/ ``` to ``` C:/Program Files (x86)/Steam/steamapps/common/Risk of Rain
      2/BepInEx/plugins/The Investor/plugins/The Investor/ ```"
    context:
    - "Copied Files\r\n\r\n 1. C:/Program Files (x86)/Steam/steamapps/common/Risk
      of Rain 2/BepInEx/plugins/The Investor/plugins/The Investor/InvestorAssemblyDef.dll\r\n\r\n
      2. C:/Program Files (x86)/Steam/steamapps/common/Risk of Rain 2/BepInEx/plugins/The
      Investor/plugins/The Investor/InvestorAssemblyDef.pdb\r\n\r\n 3. C:/Program
      Files (x86)/Steam/steamapps/common/Risk of Rain 2/BepInEx/plugins/The Investor/plugins/The
      Investor/investorassetbundle\r\n\r\n 4. C:/Program Files (x86)/Steam/steamapps/common/Risk
      of Rain 2/BepInEx/plugins/The Investor/plugins/The Investor/investorassetbundle.manifest\r\n\r\n
      5. C:/Program Files (x86)/Steam/steamapps/common/Risk of Rain 2/BepInEx/plugins/The
      Investor/plugins/The Investor/The Investor.manifest"
  - logLevel: 0
    internalTime:
      ticks: 637751028905985575
    message: '[Stage(4 - Copy)](assetlink://Assets%2fInvestorMod%2fInvestor+Survivor%2fStage.asset)
      Execute Job'
    context: []
  - logLevel: 0
    internalTime:
      ticks: 637751028905955569
    message: '[Stage(3 - StageManifestFiles)](assetlink://Assets%2fInvestorMod%2fInvestor+Survivor%2fStage.asset)
      Execute Job'
    context: []
  - logLevel: 0
    internalTime:
      ticks: 637751028905955569
    message: '[Stage(2 - StageDependencies)](assetlink://Assets%2fInvestorMod%2fInvestor+Survivor%2fStage.asset)[MoonstormSharedUtils](assetlink://Packages%2fteammoonstorm-moonstormsharedutils%2fMoonstormSharedUtils.asset)
      staged in ThunderKit/Staging'
    context:
    - "Staged Files\r\n\r\nFrom Packages\\MoonstormSharedUtils\\icon.png\r\n\r\n  To
      ThunderKit/Staging\\MoonstormSharedUtils\\icon.png\r\n\r\nFrom Packages\\MoonstormSharedUtils\\manifest.json\r\n\r\n
      \ To ThunderKit/Staging\\MoonstormSharedUtils\\manifest.json\r\n\r\nFrom Packages\\MoonstormSharedUtils\\MoonstormSharedUtils.asset\r\n\r\n
      \ To ThunderKit/Staging\\MoonstormSharedUtils\\MoonstormSharedUtils.asset\r\n\r\nFrom
      Packages\\MoonstormSharedUtils\\package.json\r\n\r\n  To ThunderKit/Staging\\MoonstormSharedUtils\\package.json\r\n\r\nFrom
      Packages\\MoonstormSharedUtils\\README.md\r\n\r\n  To ThunderKit/Staging\\MoonstormSharedUtils\\README.md\r\n\r\nFrom
      Packages\\MoonstormSharedUtils\\plugins\\MoonstormSharedUtils.dll\r\n\r\n  To
      ThunderKit/Staging\\MoonstormSharedUtils\\plugins\\MoonstormSharedUtils.dll\r\n\r\nFrom
      Packages\\MoonstormSharedUtils\\plugins\\assetbundles\\msuassets\r\n\r\n  To
      ThunderKit/Staging\\MoonstormSharedUtils\\plugins\\assetbundles\\msuassets\r\n\r\nFrom
      Packages\\MoonstormSharedUtils\\plugins\\assetbundles\\msuassets.manifest\r\n\r\n
      \ To ThunderKit/Staging\\MoonstormSharedUtils\\plugins\\assetbundles\\msuassets.manifest\r\n\r\nFrom
      Packages\\MoonstormSharedUtils\\plugins\\assetbundles\\TeamMoonstorm-MoonstormSharedUtils.manifest\r\n\r\n
      \ To ThunderKit/Staging\\MoonstormSharedUtils\\plugins\\assetbundles\\TeamMoonstorm-MoonstormSharedUtils.manifest"
  - logLevel: 0
    internalTime:
      ticks: 637751028905215399
    message: '[Stage(2 - StageDependencies)](assetlink://Assets%2fInvestorMod%2fInvestor+Survivor%2fStage.asset)[Microsoft_CSharp](assetlink://Packages%2friskofthunder-microsoft_csharp%2fMicrosoft_CSharp.asset)
      staged in ThunderKit/Staging'
    context:
    - "Staged Files\r\n\r\nFrom Packages\\Microsoft_CSharp\\Microsoft_CSharp.asset\r\n\r\n
      \ To ThunderKit/Staging\\Microsoft_CSharp\\Microsoft_CSharp.asset\r\n\r\nFrom
      Packages\\Microsoft_CSharp\\package.json\r\n\r\n  To ThunderKit/Staging\\Microsoft_CSharp\\package.json"
  - logLevel: 0
    internalTime:
      ticks: 637751028904705283
    message: '[Stage(2 - StageDependencies)](assetlink://Assets%2fInvestorMod%2fInvestor+Survivor%2fStage.asset)[FixPluginTypesSerialization](assetlink://Packages%2friskofthunder-fixplugintypesserialization%2fFixPluginTypesSerialization.asset)
      staged in ThunderKit/Staging'
    context:
    - "Staged Files\r\n\r\nFrom Packages\\FixPluginTypesSerialization\\FixPluginTypesSerialization.asset\r\n\r\n
      \ To ThunderKit/Staging\\FixPluginTypesSerialization\\FixPluginTypesSerialization.asset\r\n\r\nFrom
      Packages\\FixPluginTypesSerialization\\icon.png\r\n\r\n  To ThunderKit/Staging\\FixPluginTypesSerialization\\icon.png\r\n\r\nFrom
      Packages\\FixPluginTypesSerialization\\manifest.json\r\n\r\n  To ThunderKit/Staging\\FixPluginTypesSerialization\\manifest.json\r\n\r\nFrom
      Packages\\FixPluginTypesSerialization\\package.json\r\n\r\n  To ThunderKit/Staging\\FixPluginTypesSerialization\\package.json\r\n\r\nFrom
      Packages\\FixPluginTypesSerialization\\README.md\r\n\r\n  To ThunderKit/Staging\\FixPluginTypesSerialization\\README.md\r\n\r\nFrom
      Packages\\FixPluginTypesSerialization\\BepInEx\\patchers\\FixPluginTypesSerialization\\FixPluginTypesSerialization.dll\r\n\r\n
      \ To ThunderKit/Staging\\FixPluginTypesSerialization\\BepInEx\\patchers\\FixPluginTypesSerialization\\FixPluginTypesSerialization.dll"
  - logLevel: 0
    internalTime:
      ticks: 637751028904105148
    message: '[Stage(2 - StageDependencies)](assetlink://Assets%2fInvestorMod%2fInvestor+Survivor%2fStage.asset)[R2API](assetlink://Packages%2ftristanmcpherson-r2api%2fR2API.asset)
      staged in ThunderKit/Staging'
    context:
    - "Staged Files\r\n\r\nFrom Packages\\R2API\\icon.png\r\n\r\n  To ThunderKit/Staging\\R2API\\icon.png\r\n\r\nFrom
      Packages\\R2API\\manifest.json\r\n\r\n  To ThunderKit/Staging\\R2API\\manifest.json\r\n\r\nFrom
      Packages\\R2API\\package.json\r\n\r\n  To ThunderKit/Staging\\R2API\\package.json\r\n\r\nFrom
      Packages\\R2API\\R2API.asset\r\n\r\n  To ThunderKit/Staging\\R2API\\R2API.asset\r\n\r\nFrom
      Packages\\R2API\\README.md\r\n\r\n  To ThunderKit/Staging\\R2API\\README.md\r\n\r\nFrom
      Packages\\R2API\\plugins\\R2API\\R2API.dll\r\n\r\n  To ThunderKit/Staging\\R2API\\plugins\\R2API\\R2API.dll\r\n\r\nFrom
      Packages\\R2API\\plugins\\R2API\\R2API.xml\r\n\r\n  To ThunderKit/Staging\\R2API\\plugins\\R2API\\R2API.xml"
  - logLevel: 0
    internalTime:
      ticks: 637751028903404988
    message: '[Stage(2 - StageDependencies)](assetlink://Assets%2fInvestorMod%2fInvestor+Survivor%2fStage.asset)[HookGenPatcher](assetlink://Packages%2friskofthunder-hookgenpatcher%2fHookGenPatcher.asset)
      staged in ThunderKit/Staging'
    context:
    - "Staged Files\r\n\r\nFrom Packages\\HookGenPatcher\\HookGenPatcher.asset\r\n\r\n
      \ To ThunderKit/Staging\\HookGenPatcher\\HookGenPatcher.asset\r\n\r\nFrom Packages\\HookGenPatcher\\icon.png\r\n\r\n
      \ To ThunderKit/Staging\\HookGenPatcher\\icon.png\r\n\r\nFrom Packages\\HookGenPatcher\\manifest.json\r\n\r\n
      \ To ThunderKit/Staging\\HookGenPatcher\\manifest.json\r\n\r\nFrom Packages\\HookGenPatcher\\package.json\r\n\r\n
      \ To ThunderKit/Staging\\HookGenPatcher\\package.json\r\n\r\nFrom Packages\\HookGenPatcher\\README.md\r\n\r\n
      \ To ThunderKit/Staging\\HookGenPatcher\\README.md\r\n\r\nFrom Packages\\HookGenPatcher\\BepInEx\\patchers\\Bepinex.MonoMod.HookGenPatcher\\BepInEx.MonoMod.HookGenPatcher.dll\r\n\r\n
      \ To ThunderKit/Staging\\HookGenPatcher\\BepInEx\\patchers\\Bepinex.MonoMod.HookGenPatcher\\BepInEx.MonoMod.HookGenPatcher.dll\r\n\r\nFrom
      Packages\\HookGenPatcher\\BepInEx\\patchers\\Bepinex.MonoMod.HookGenPatcher\\Bepinex.Monomod.HookGenPatcher.pdb\r\n\r\n
      \ To ThunderKit/Staging\\HookGenPatcher\\BepInEx\\patchers\\Bepinex.MonoMod.HookGenPatcher\\Bepinex.Monomod.HookGenPatcher.pdb\r\n\r\nFrom
      Packages\\HookGenPatcher\\BepInEx\\patchers\\Bepinex.MonoMod.HookGenPatcher\\MonoMod.exe\r\n\r\n
      \ To ThunderKit/Staging\\HookGenPatcher\\BepInEx\\patchers\\Bepinex.MonoMod.HookGenPatcher\\MonoMod.exe\r\n\r\nFrom
      Packages\\HookGenPatcher\\BepInEx\\patchers\\Bepinex.MonoMod.HookGenPatcher\\MonoMod.RuntimeDetour.HookGen.exe\r\n\r\n
      \ To ThunderKit/Staging\\HookGenPatcher\\BepInEx\\patchers\\Bepinex.MonoMod.HookGenPatcher\\MonoMod.RuntimeDetour.HookGen.exe\r\n\r\nFrom
      Packages\\HookGenPatcher\\BepInEx\\patchers\\Bepinex.MonoMod.HookGenPatcher\\MonoMod.RuntimeDetour.HookGen.xml\r\n\r\n
      \ To ThunderKit/Staging\\HookGenPatcher\\BepInEx\\patchers\\Bepinex.MonoMod.HookGenPatcher\\MonoMod.RuntimeDetour.HookGen.xml\r\n\r\nFrom
      Packages\\HookGenPatcher\\BepInEx\\patchers\\Bepinex.MonoMod.HookGenPatcher\\MonoMod.xml\r\n\r\n
      \ To ThunderKit/Staging\\HookGenPatcher\\BepInEx\\patchers\\Bepinex.MonoMod.HookGenPatcher\\MonoMod.xml"
  - logLevel: 0
    internalTime:
      ticks: 637751028902594808
    message: '[Stage(2 - StageDependencies)](assetlink://Assets%2fInvestorMod%2fInvestor+Survivor%2fStage.asset)[BepInExPack](assetlink://Packages%2fbbepis-bepinexpack%2fBepInExPack.asset)
      staged in ThunderKit/Staging'
    context:
    - "Staged Files\r\n\r\nFrom Packages\\BepInExPack\\BepInExPack.asset\r\n\r\n  To
      ThunderKit/Staging\\BepInExPack\\BepInExPack.asset\r\n\r\nFrom Packages\\BepInExPack\\icon.png\r\n\r\n
      \ To ThunderKit/Staging\\BepInExPack\\icon.png\r\n\r\nFrom Packages\\BepInExPack\\manifest.json\r\n\r\n
      \ To ThunderKit/Staging\\BepInExPack\\manifest.json\r\n\r\nFrom Packages\\BepInExPack\\package.json\r\n\r\n
      \ To ThunderKit/Staging\\BepInExPack\\package.json\r\n\r\nFrom Packages\\BepInExPack\\README.md\r\n\r\n
      \ To ThunderKit/Staging\\BepInExPack\\README.md\r\n\r\nFrom Packages\\BepInExPack\\BepInExPack\\doorstop_config.ini\r\n\r\n
      \ To ThunderKit/Staging\\BepInExPack\\BepInExPack\\doorstop_config.ini\r\n\r\nFrom
      Packages\\BepInExPack\\BepInExPack\\winhttp.dll\r\n\r\n  To ThunderKit/Staging\\BepInExPack\\BepInExPack\\winhttp.dll\r\n\r\nFrom
      Packages\\BepInExPack\\BepInExPack\\BepInEx\\config\\BepInEx.cfg\r\n\r\n  To
      ThunderKit/Staging\\BepInExPack\\BepInExPack\\BepInEx\\config\\BepInEx.cfg\r\n\r\nFrom
      Packages\\BepInExPack\\BepInExPack\\BepInEx\\core\\0Harmony.dll\r\n\r\n  To
      ThunderKit/Staging\\BepInExPack\\BepInExPack\\BepInEx\\core\\0Harmony.dll\r\n\r\nFrom
      Packages\\BepInExPack\\BepInExPack\\BepInEx\\core\\0Harmony.xml\r\n\r\n  To
      ThunderKit/Staging\\BepInExPack\\BepInExPack\\BepInEx\\core\\0Harmony.xml\r\n\r\nFrom
      Packages\\BepInExPack\\BepInExPack\\BepInEx\\core\\0Harmony20.dll\r\n\r\n  To
      ThunderKit/Staging\\BepInExPack\\BepInExPack\\BepInEx\\core\\0Harmony20.dll\r\n\r\nFrom
      Packages\\BepInExPack\\BepInExPack\\BepInEx\\core\\BepInEx.dll\r\n\r\n  To ThunderKit/Staging\\BepInExPack\\BepInExPack\\BepInEx\\core\\BepInEx.dll\r\n\r\nFrom
      Packages\\BepInExPack\\BepInExPack\\BepInEx\\core\\BepInEx.Harmony.dll\r\n\r\n
      \ To ThunderKit/Staging\\BepInExPack\\BepInExPack\\BepInEx\\core\\BepInEx.Harmony.dll\r\n\r\nFrom
      Packages\\BepInExPack\\BepInExPack\\BepInEx\\core\\BepInEx.Harmony.xml\r\n\r\n
      \ To ThunderKit/Staging\\BepInExPack\\BepInExPack\\BepInEx\\core\\BepInEx.Harmony.xml\r\n\r\nFrom
      Packages\\BepInExPack\\BepInExPack\\BepInEx\\core\\BepInEx.Preloader.dll\r\n\r\n
      \ To ThunderKit/Staging\\BepInExPack\\BepInExPack\\BepInEx\\core\\BepInEx.Preloader.dll\r\n\r\nFrom
      Packages\\BepInExPack\\BepInExPack\\BepInEx\\core\\BepInEx.Preloader.xml\r\n\r\n
      \ To ThunderKit/Staging\\BepInExPack\\BepInExPack\\BepInEx\\core\\BepInEx.Preloader.xml\r\n\r\nFrom
      Packages\\BepInExPack\\BepInExPack\\BepInEx\\core\\BepInEx.xml\r\n\r\n  To ThunderKit/Staging\\BepInExPack\\BepInExPack\\BepInEx\\core\\BepInEx.xml\r\n\r\nFrom
      Packages\\BepInExPack\\BepInExPack\\BepInEx\\core\\HarmonyXInterop.dll\r\n\r\n
      \ To ThunderKit/Staging\\BepInExPack\\BepInExPack\\BepInEx\\core\\HarmonyXInterop.dll\r\n\r\nFrom
      Packages\\BepInExPack\\BepInExPack\\BepInEx\\core\\Mono.Cecil.dll\r\n\r\n  To
      ThunderKit/Staging\\BepInExPack\\BepInExPack\\BepInEx\\core\\Mono.Cecil.dll\r\n\r\nFrom
      Packages\\BepInExPack\\BepInExPack\\BepInEx\\core\\Mono.Cecil.Mdb.dll\r\n\r\n
      \ To ThunderKit/Staging\\BepInExPack\\BepInExPack\\BepInEx\\core\\Mono.Cecil.Mdb.dll\r\n\r\nFrom
      Packages\\BepInExPack\\BepInExPack\\BepInEx\\core\\Mono.Cecil.Mdb.pdb\r\n\r\n
      \ To ThunderKit/Staging\\BepInExPack\\BepInExPack\\BepInEx\\core\\Mono.Cecil.Mdb.pdb\r\n\r\nFrom
      Packages\\BepInExPack\\BepInExPack\\BepInEx\\core\\Mono.Cecil.pdb\r\n\r\n  To
      ThunderKit/Staging\\BepInExPack\\BepInExPack\\BepInEx\\core\\Mono.Cecil.pdb\r\n\r\nFrom
      Packages\\BepInExPack\\BepInExPack\\BepInEx\\core\\Mono.Cecil.Pdb.dll\r\n\r\n
      \ To ThunderKit/Staging\\BepInExPack\\BepInExPack\\BepInEx\\core\\Mono.Cecil.Pdb.dll\r\n\r\nFrom
      Packages\\BepInExPack\\BepInExPack\\BepInEx\\core\\Mono.Cecil.Pdb.pdb\r\n\r\n
      \ To ThunderKit/Staging\\BepInExPack\\BepInExPack\\BepInEx\\core\\Mono.Cecil.Pdb.pdb\r\n\r\nFrom
      Packages\\BepInExPack\\BepInExPack\\BepInEx\\core\\Mono.Cecil.Rocks.dll\r\n\r\n
      \ To ThunderKit/Staging\\BepInExPack\\BepInExPack\\BepInEx\\core\\Mono.Cecil.Rocks.dll\r\n\r\nFrom
      Packages\\BepInExPack\\BepInExPack\\BepInEx\\core\\Mono.Cecil.Rocks.pdb\r\n\r\n
      \ To ThunderKit/Staging\\BepInExPack\\BepInExPack\\BepInEx\\core\\Mono.Cecil.Rocks.pdb\r\n\r\nFrom
      Packages\\BepInExPack\\BepInExPack\\BepInEx\\core\\MonoMod.RuntimeDetour.dll\r\n\r\n
      \ To ThunderKit/Staging\\BepInExPack\\BepInExPack\\BepInEx\\core\\MonoMod.RuntimeDetour.dll\r\n\r\nFrom
      Packages\\BepInExPack\\BepInExPack\\BepInEx\\core\\MonoMod.RuntimeDetour.xml\r\n\r\n
      \ To ThunderKit/Staging\\BepInExPack\\BepInExPack\\BepInEx\\core\\MonoMod.RuntimeDetour.xml\r\n\r\nFrom
      Packages\\BepInExPack\\BepInExPack\\BepInEx\\core\\MonoMod.Utils.dll\r\n\r\n
      \ To ThunderKit/Staging\\BepInExPack\\BepInExPack\\BepInEx\\core\\MonoMod.Utils.dll\r\n\r\nFrom
      Packages\\BepInExPack\\BepInExPack\\BepInEx\\core\\MonoMod.Utils.xml\r\n\r\n
      \ To ThunderKit/Staging\\BepInExPack\\BepInExPack\\BepInEx\\core\\MonoMod.Utils.xml"
  - logLevel: 0
    internalTime:
      ticks: 637751028901213772
    message: '[Stage(2 - StageDependencies)](assetlink://Assets%2fInvestorMod%2fInvestor+Survivor%2fStage.asset)
      Execute Job'
    context: []
  - logLevel: 0
    internalTime:
      ticks: 637751028901183765
    message: "[Stage(1 - StageAssemblies)](assetlink://Assets%2fInvestorMod%2fInvestor+Survivor%2fStage.asset)[InvestorManifest](assetlink://Assets%2fInvestorMod%2fInvestor+Survivor%2fInvestorManifest.asset)
      staging ``` ThunderKit/Libraries ``` in ``` ThunderKit/Staging/The Investor/plugins/The
      Investor ```\r\n"
    context:
    - "Assembly Files\r\nFrom: ThunderKit/Libraries\\InvestorAssemblyDef.pdb\r\n  To:
      ThunderKit/Staging/The Investor/plugins/The Investor/InvestorAssemblyDef.pdb\r\n\r\nFrom:
      ThunderKit/Libraries\\InvestorAssemblyDef.dll\r\n  To: ThunderKit/Staging/The
      Investor/plugins/The Investor/InvestorAssemblyDef.dll\r\n\r\n"
  - logLevel: 0
    internalTime:
      ticks: 637751028900663656
    message: '[Stage(1 - StageAssemblies)](assetlink://Assets%2fInvestorMod%2fInvestor+Survivor%2fStage.asset)[InvestorManifest](assetlink://Assets%2fInvestorMod%2fInvestor+Survivor%2fInvestorManifest.asset)
      Build Completed: ``` ThunderKit/Libraries/InvestorAssemblyDef.dll ```'
    context: []
  - logLevel: 1
    internalTime:
      ticks: 637751028900663656
    message: '[Stage(1 - StageAssemblies)](assetlink://Assets%2fInvestorMod%2fInvestor+Survivor%2fStage.asset)[InvestorManifest](assetlink://Assets%2fInvestorMod%2fInvestor+Survivor%2fInvestorManifest.asset)
      Assets\InvestorMod\Investor Survivor\Scripts\Buffs\TaxEvasionBuff.cs(23,28):
      warning CS0649: Field ''TaxEvasionBuff.TaxEvasionBehaviour.healthTracker'' is
      never assigned to, and will always have its default value null'
    context:
    - Assets\InvestorMod\Investor Survivor\Scripts\Buffs\TaxEvasionBuff.cs (23:28)
  - logLevel: 1
    internalTime:
      ticks: 637751028900663656
    message: '[Stage(1 - StageAssemblies)](assetlink://Assets%2fInvestorMod%2fInvestor+Survivor%2fStage.asset)[InvestorManifest](assetlink://Assets%2fInvestorMod%2fInvestor+Survivor%2fInvestorManifest.asset)
      Assets\InvestorMod\Investor Survivor\Scripts\Components\InvestorProjectorManager.cs(8,16):
      warning CS0649: Field ''InvestorProjectorManager.targetPanel'' is never assigned
      to, and will always have its default value null'
    context:
    - Assets\InvestorMod\Investor Survivor\Scripts\Components\InvestorProjectorManager.cs
      (8:16)
  - logLevel: 1
    internalTime:
      ticks: 637751028900663656
    message: '[Stage(1 - StageAssemblies)](assetlink://Assets%2fInvestorMod%2fInvestor+Survivor%2fStage.asset)[InvestorManifest](assetlink://Assets%2fInvestorMod%2fInvestor+Survivor%2fInvestorManifest.asset)
      Assets\InvestorMod\Investor Survivor\Scripts\Components\InvestorProjectorManager.cs(18,12):
      warning CS0649: Field ''InvestorProjectorManager.projectorBaseBone'' is never
      assigned to, and will always have its default value null'
    context:
    - Assets\InvestorMod\Investor Survivor\Scripts\Components\InvestorProjectorManager.cs
      (18:12)
  - logLevel: 1
    internalTime:
      ticks: 637751028900663656
    message: '[Stage(1 - StageAssemblies)](assetlink://Assets%2fInvestorMod%2fInvestor+Survivor%2fStage.asset)[InvestorManifest](assetlink://Assets%2fInvestorMod%2fInvestor+Survivor%2fInvestorManifest.asset)
      Assets\InvestorMod\Investor Survivor\Scripts\Components\StockTickerUI.cs(217,11):
      warning CS0649: Field ''StockTickerUI.chargePanelAnimator'' is never assigned
      to, and will always have its default value null'
    context:
    - Assets\InvestorMod\Investor Survivor\Scripts\Components\StockTickerUI.cs (217:11)
  - logLevel: 1
    internalTime:
      ticks: 637751028900663656
    message: '[Stage(1 - StageAssemblies)](assetlink://Assets%2fInvestorMod%2fInvestor+Survivor%2fStage.asset)[InvestorManifest](assetlink://Assets%2fInvestorMod%2fInvestor+Survivor%2fInvestorManifest.asset)
      Assets\InvestorMod\Investor Survivor\Scripts\Components\StockTickerUI.cs(118,15):
      warning CS0649: Field ''StockTickerUI.outlineLineRenderer'' is never assigned
      to, and will always have its default value null'
    context:
    - Assets\InvestorMod\Investor Survivor\Scripts\Components\StockTickerUI.cs (118:15)
  - logLevel: 1
    internalTime:
      ticks: 637751028900663656
    message: '[Stage(1 - StageAssemblies)](assetlink://Assets%2fInvestorMod%2fInvestor+Survivor%2fStage.asset)[InvestorManifest](assetlink://Assets%2fInvestorMod%2fInvestor+Survivor%2fInvestorManifest.asset)
      Assets\InvestorMod\Investor Survivor\Scripts\Components\StockTickerUI.cs(121,9):
      warning CS0649: Field ''StockTickerUI.chartRenderCamera'' is never assigned
      to, and will always have its default value null'
    context:
    - Assets\InvestorMod\Investor Survivor\Scripts\Components\StockTickerUI.cs (121:9)
  - logLevel: 1
    internalTime:
      ticks: 637751028900663656
    message: '[Stage(1 - StageAssemblies)](assetlink://Assets%2fInvestorMod%2fInvestor+Survivor%2fStage.asset)[InvestorManifest](assetlink://Assets%2fInvestorMod%2fInvestor+Survivor%2fInvestorManifest.asset)
      Assets\InvestorMod\Investor Survivor\Scripts\Components\RuntimeMatSwitcher.cs(11,9):
      warning CS0649: Field ''RuntimeMatSwitcher.assetPath'' is never assigned to,
      and will always have its default value null'
    context:
    - Assets\InvestorMod\Investor Survivor\Scripts\Components\RuntimeMatSwitcher.cs
      (11:9)
  - logLevel: 1
    internalTime:
      ticks: 637751028900663656
    message: '[Stage(1 - StageAssemblies)](assetlink://Assets%2fInvestorMod%2fInvestor+Survivor%2fStage.asset)[InvestorManifest](assetlink://Assets%2fInvestorMod%2fInvestor+Survivor%2fInvestorManifest.asset)
      Assets\InvestorMod\Investor Survivor\Scripts\Components\StockTickerUI.cs(146,8):
      warning CS0649: Field ''StockTickerUI.arrowUp'' is never assigned to, and will
      always have its default value null'
    context:
    - Assets\InvestorMod\Investor Survivor\Scripts\Components\StockTickerUI.cs (146:8)
  - logLevel: 1
    internalTime:
      ticks: 637751028900663656
    message: '[Stage(1 - StageAssemblies)](assetlink://Assets%2fInvestorMod%2fInvestor+Survivor%2fStage.asset)[InvestorManifest](assetlink://Assets%2fInvestorMod%2fInvestor+Survivor%2fInvestorManifest.asset)
      Assets\InvestorMod\Investor Survivor\Scripts\Components\StockTickerUI.cs(143,11):
      warning CS0649: Field ''StockTickerUI.arrowAnimator'' is never assigned to,
      and will always have its default value null'
    context:
    - Assets\InvestorMod\Investor Survivor\Scripts\Components\StockTickerUI.cs (143:11)
  - logLevel: 1
    internalTime:
      ticks: 637751028900663656
    message: '[Stage(1 - StageAssemblies)](assetlink://Assets%2fInvestorMod%2fInvestor+Survivor%2fStage.asset)[InvestorManifest](assetlink://Assets%2fInvestorMod%2fInvestor+Survivor%2fInvestorManifest.asset)
      Assets\InvestorMod\Investor Survivor\Scripts\Components\InvestorProjectorManager.cs(16,12):
      warning CS0649: Field ''InvestorProjectorManager.projectorEndBone'' is never
      assigned to, and will always have its default value null'
    context:
    - Assets\InvestorMod\Investor Survivor\Scripts\Components\InvestorProjectorManager.cs
      (16:12)
  - logLevel: 1
    internalTime:
      ticks: 637751028900663656
    message: '[Stage(1 - StageAssemblies)](assetlink://Assets%2fInvestorMod%2fInvestor+Survivor%2fStage.asset)[InvestorManifest](assetlink://Assets%2fInvestorMod%2fInvestor+Survivor%2fInvestorManifest.asset)
      Assets\InvestorMod\Investor Survivor\Scripts\Components\InvestTracker.cs(10,16):
      warning CS0649: Field ''InvestTracker.tickerUIManager'' is never assigned to,
      and will always have its default value null'
    context:
    - Assets\InvestorMod\Investor Survivor\Scripts\Components\InvestTracker.cs (10:16)
  - logLevel: 1
    internalTime:
      ticks: 637751028900653658
    message: '[Stage(1 - StageAssemblies)](assetlink://Assets%2fInvestorMod%2fInvestor+Survivor%2fStage.asset)[InvestorManifest](assetlink://Assets%2fInvestorMod%2fInvestor+Survivor%2fInvestorManifest.asset)
      Assets\InvestorMod\Investor Survivor\Scripts\Components\StockTickerUI.cs(148,8):
      warning CS0649: Field ''StockTickerUI.arrowDown'' is never assigned to, and
      will always have its default value null'
    context:
    - Assets\InvestorMod\Investor Survivor\Scripts\Components\StockTickerUI.cs (148:8)
  - logLevel: 1
    internalTime:
      ticks: 637751028900653658
    message: '[Stage(1 - StageAssemblies)](assetlink://Assets%2fInvestorMod%2fInvestor+Survivor%2fStage.asset)[InvestorManifest](assetlink://Assets%2fInvestorMod%2fInvestor+Survivor%2fInvestorManifest.asset)
      Assets\InvestorMod\Investor Survivor\Scripts\Components\InvestorProjectorManager.cs(14,16):
      warning CS0649: Field ''InvestorProjectorManager.panelToCopySizeFrom'' is never
      assigned to, and will always have its default value null'
    context:
    - Assets\InvestorMod\Investor Survivor\Scripts\Components\InvestorProjectorManager.cs
      (14:16)
  - logLevel: 1
    internalTime:
      ticks: 637751028900653658
    message: '[Stage(1 - StageAssemblies)](assetlink://Assets%2fInvestorMod%2fInvestor+Survivor%2fStage.asset)[InvestorManifest](assetlink://Assets%2fInvestorMod%2fInvestor+Survivor%2fInvestorManifest.asset)
      Assets\InvestorMod\Investor Survivor\Scripts\Components\InvestorProjectorManager.cs(20,12):
      warning CS0649: Field ''InvestorProjectorManager.baseTransformTarget'' is never
      assigned to, and will always have its default value null'
    context:
    - Assets\InvestorMod\Investor Survivor\Scripts\Components\InvestorProjectorManager.cs
      (20:12)
  - logLevel: 1
    internalTime:
      ticks: 637751028900653658
    message: '[Stage(1 - StageAssemblies)](assetlink://Assets%2fInvestorMod%2fInvestor+Survivor%2fStage.asset)[InvestorManifest](assetlink://Assets%2fInvestorMod%2fInvestor+Survivor%2fInvestorManifest.asset)
      Assets\InvestorMod\Investor Survivor\Scripts\Components\StockTickerUI.cs(140,7):
      warning CS0649: Field ''StockTickerUI.percentageChangeText'' is never assigned
      to, and will always have its default value null'
    context:
    - Assets\InvestorMod\Investor Survivor\Scripts\Components\StockTickerUI.cs (140:7)
  - logLevel: 1
    internalTime:
      ticks: 637751028900653658
    message: '[Stage(1 - StageAssemblies)](assetlink://Assets%2fInvestorMod%2fInvestor+Survivor%2fStage.asset)[InvestorManifest](assetlink://Assets%2fInvestorMod%2fInvestor+Survivor%2fInvestorManifest.asset)
      Assets\InvestorMod\Investor Survivor\Scripts\Components\StockTickerUI.cs(208,11):
      warning CS0649: Field ''StockTickerUI.tickerUIAnimator'' is never assigned to,
      and will always have its default value null'
    context:
    - Assets\InvestorMod\Investor Survivor\Scripts\Components\StockTickerUI.cs (208:11)
  - logLevel: 1
    internalTime:
      ticks: 637751028900653658
    message: '[Stage(1 - StageAssemblies)](assetlink://Assets%2fInvestorMod%2fInvestor+Survivor%2fStage.asset)[InvestorManifest](assetlink://Assets%2fInvestorMod%2fInvestor+Survivor%2fInvestorManifest.asset)
      Assets\InvestorMod\Investor Survivor\Scripts\Components\StockTickerUI.cs(131,7):
      warning CS0649: Field ''StockTickerUI.stockValue'' is never assigned to, and
      will always have its default value null'
    context:
    - Assets\InvestorMod\Investor Survivor\Scripts\Components\StockTickerUI.cs (131:7)
  - logLevel: 1
    internalTime:
      ticks: 637751028900653658
    message: '[Stage(1 - StageAssemblies)](assetlink://Assets%2fInvestorMod%2fInvestor+Survivor%2fStage.asset)[InvestorManifest](assetlink://Assets%2fInvestorMod%2fInvestor+Survivor%2fInvestorManifest.asset)
      Assets\InvestorMod\Investor Survivor\Scripts\Components\StockTickerUI.cs(159,20):
      warning CS0649: Field ''StockTickerUI.flavourTexts'' is never assigned to, and
      will always have its default value null'
    context:
    - Assets\InvestorMod\Investor Survivor\Scripts\Components\StockTickerUI.cs (159:20)
  - logLevel: 1
    internalTime:
      ticks: 637751028900653658
    message: '[Stage(1 - StageAssemblies)](assetlink://Assets%2fInvestorMod%2fInvestor+Survivor%2fStage.asset)[InvestorManifest](assetlink://Assets%2fInvestorMod%2fInvestor+Survivor%2fInvestorManifest.asset)
      Assets\InvestorMod\Investor Survivor\Scripts\Components\FontCopier.cs(8,13):
      warning CS0649: Field ''FontCopier.textToReplace'' is never assigned to, and
      will always have its default value null'
    context:
    - Assets\InvestorMod\Investor Survivor\Scripts\Components\FontCopier.cs (8:13)
  - logLevel: 1
    internalTime:
      ticks: 637751028900653658
    message: '[Stage(1 - StageAssemblies)](assetlink://Assets%2fInvestorMod%2fInvestor+Survivor%2fStage.asset)[InvestorManifest](assetlink://Assets%2fInvestorMod%2fInvestor+Survivor%2fInvestorManifest.asset)
      Assets\InvestorMod\Investor Survivor\Scripts\Components\StockTickerUI.cs(112,13):
      warning CS0649: Field ''StockTickerUI.targetMeshFilter'' is never assigned to,
      and will always have its default value null'
    context:
    - Assets\InvestorMod\Investor Survivor\Scripts\Components\StockTickerUI.cs (112:13)
  - logLevel: 1
    internalTime:
      ticks: 637751028900653658
    message: '[Stage(1 - StageAssemblies)](assetlink://Assets%2fInvestorMod%2fInvestor+Survivor%2fStage.asset)[InvestorManifest](assetlink://Assets%2fInvestorMod%2fInvestor+Survivor%2fInvestorManifest.asset)
      Assets\InvestorMod\Investor Survivor\Scripts\Components\LookAtMainCamera.cs(13,10):
      warning CS0649: Field ''LookAtMainCamera.angleDeltaRange'' is never assigned
      to, and will always have its default value '
    context:
    - Assets\InvestorMod\Investor Survivor\Scripts\Components\LookAtMainCamera.cs
      (13:10)
  - logLevel: 1
    internalTime:
      ticks: 637751028900653658
    message: '[Stage(1 - StageAssemblies)](assetlink://Assets%2fInvestorMod%2fInvestor+Survivor%2fStage.asset)[InvestorManifest](assetlink://Assets%2fInvestorMod%2fInvestor+Survivor%2fInvestorManifest.asset)
      Assets\InvestorMod\Investor Survivor\Scripts\Components\StockTickerUI.cs(153,7):
      warning CS0649: Field ''StockTickerUI.flavourTextShadow'' is never assigned
      to, and will always have its default value null'
    context:
    - Assets\InvestorMod\Investor Survivor\Scripts\Components\StockTickerUI.cs (153:7)
  - logLevel: 1
    internalTime:
      ticks: 637751028900653658
    message: '[Stage(1 - StageAssemblies)](assetlink://Assets%2fInvestorMod%2fInvestor+Survivor%2fStage.asset)[InvestorManifest](assetlink://Assets%2fInvestorMod%2fInvestor+Survivor%2fInvestorManifest.asset)
      Assets\InvestorMod\Investor Survivor\Scripts\Components\StockTickerUI.cs(205,27):
      warning CS0649: Field ''StockTickerUI.projectorManager'' is never assigned to,
      and will always have its default value null'
    context:
    - Assets\InvestorMod\Investor Survivor\Scripts\Components\StockTickerUI.cs (205:27)
  - logLevel: 1
    internalTime:
      ticks: 637751028900653658
    message: '[Stage(1 - StageAssemblies)](assetlink://Assets%2fInvestorMod%2fInvestor+Survivor%2fStage.asset)[InvestorManifest](assetlink://Assets%2fInvestorMod%2fInvestor+Survivor%2fInvestorManifest.asset)
      Assets\InvestorMod\Investor Survivor\Scripts\Components\StockTickerUI.cs(137,7):
      warning CS0649: Field ''StockTickerUI.changeText'' is never assigned to, and
      will always have its default value null'
    context:
    - Assets\InvestorMod\Investor Survivor\Scripts\Components\StockTickerUI.cs (137:7)
  - logLevel: 1
    internalTime:
      ticks: 637751028900653658
    message: '[Stage(1 - StageAssemblies)](assetlink://Assets%2fInvestorMod%2fInvestor+Survivor%2fStage.asset)[InvestorManifest](assetlink://Assets%2fInvestorMod%2fInvestor+Survivor%2fInvestorManifest.asset)
      Assets\InvestorMod\Investor Survivor\Scripts\Components\StockTickerUI.cs(220,7):
      warning CS0649: Field ''StockTickerUI.sharesText'' is never assigned to, and
      will always have its default value null'
    context:
    - Assets\InvestorMod\Investor Survivor\Scripts\Components\StockTickerUI.cs (220:7)
  - logLevel: 1
    internalTime:
      ticks: 637751028900643640
    message: '[Stage(1 - StageAssemblies)](assetlink://Assets%2fInvestorMod%2fInvestor+Survivor%2fStage.asset)[InvestorManifest](assetlink://Assets%2fInvestorMod%2fInvestor+Survivor%2fInvestorManifest.asset)
      Assets\InvestorMod\Investor Survivor\Scripts\Components\LookAtMainCamera.cs(8,17):
      warning CS0649: Field ''LookAtMainCamera.speedMultiplierCurve'' is never assigned
      to, and will always have its default value null'
    context:
    - Assets\InvestorMod\Investor Survivor\Scripts\Components\LookAtMainCamera.cs
      (8:17)
  - logLevel: 1
    internalTime:
      ticks: 637751028900643640
    message: '[Stage(1 - StageAssemblies)](assetlink://Assets%2fInvestorMod%2fInvestor+Survivor%2fStage.asset)[InvestorManifest](assetlink://Assets%2fInvestorMod%2fInvestor+Survivor%2fInvestorManifest.asset)
      Assets\InvestorMod\Investor Survivor\Scripts\Components\StockTickerUI.cs(214,7):
      warning CS0649: Field ''StockTickerUI.chargeText'' is never assigned to, and
      will always have its default value null'
    context:
    - Assets\InvestorMod\Investor Survivor\Scripts\Components\StockTickerUI.cs (214:7)
  - logLevel: 1
    internalTime:
      ticks: 637751028900643640
    message: '[Stage(1 - StageAssemblies)](assetlink://Assets%2fInvestorMod%2fInvestor+Survivor%2fStage.asset)[InvestorManifest](assetlink://Assets%2fInvestorMod%2fInvestor+Survivor%2fInvestorManifest.asset)
      Assets\InvestorMod\Investor Survivor\Scripts\Components\InvestorProjectorManager.cs(25,22):
      warning CS0649: Field ''InvestorProjectorManager.projectorMesh'' is never assigned
      to, and will always have its default value null'
    context:
    - Assets\InvestorMod\Investor Survivor\Scripts\Components\InvestorProjectorManager.cs
      (25:22)
  - logLevel: 1
    internalTime:
      ticks: 637751028900643640
    message: '[Stage(1 - StageAssemblies)](assetlink://Assets%2fInvestorMod%2fInvestor+Survivor%2fStage.asset)[InvestorManifest](assetlink://Assets%2fInvestorMod%2fInvestor+Survivor%2fInvestorManifest.asset)
      Assets\InvestorMod\Investor Survivor\Scripts\Components\StockTickerUI.cs(115,13):
      warning CS0649: Field ''StockTickerUI.backgroundMeshFilter'' is never assigned
      to, and will always have its default value null'
    context:
    - Assets\InvestorMod\Investor Survivor\Scripts\Components\StockTickerUI.cs (115:13)
  - logLevel: 1
    internalTime:
      ticks: 637751028900643640
    message: '[Stage(1 - StageAssemblies)](assetlink://Assets%2fInvestorMod%2fInvestor+Survivor%2fStage.asset)[InvestorManifest](assetlink://Assets%2fInvestorMod%2fInvestor+Survivor%2fInvestorManifest.asset)
      Assets\InvestorMod\Investor Survivor\Scripts\Components\StockTickerUI.cs(151,7):
      warning CS0649: Field ''StockTickerUI.flavourText'' is never assigned to, and
      will always have its default value null'
    context:
    - Assets\InvestorMod\Investor Survivor\Scripts\Components\StockTickerUI.cs (151:7)
  - logLevel: 1
    internalTime:
      ticks: 637751028900643640
    message: '[Stage(1 - StageAssemblies)](assetlink://Assets%2fInvestorMod%2fInvestor+Survivor%2fStage.asset)[InvestorManifest](assetlink://Assets%2fInvestorMod%2fInvestor+Survivor%2fInvestorManifest.asset)
      Assets\InvestorMod\Investor Survivor\Scripts\Components\StockTickerUI.cs(211,16):
      warning CS0649: Field ''StockTickerUI.chargeMeter'' is never assigned to, and
      will always have its default value null'
    context:
    - Assets\InvestorMod\Investor Survivor\Scripts\Components\StockTickerUI.cs (211:16)
  - logLevel: 1
    internalTime:
      ticks: 637751028900643640
    message: '[Stage(1 - StageAssemblies)](assetlink://Assets%2fInvestorMod%2fInvestor+Survivor%2fStage.asset)[InvestorManifest](assetlink://Assets%2fInvestorMod%2fInvestor+Survivor%2fInvestorManifest.asset)
      Assets\InvestorMod\Investor Survivor\Scripts\Components\StockTickerUI.cs(156,11):
      warning CS0649: Field ''StockTickerUI.flavourAnimator'' is never assigned to,
      and will always have its default value null'
    context:
    - Assets\InvestorMod\Investor Survivor\Scripts\Components\StockTickerUI.cs (156:11)
  - logLevel: 1
    internalTime:
      ticks: 637751028900643640
    message: '[Stage(1 - StageAssemblies)](assetlink://Assets%2fInvestorMod%2fInvestor+Survivor%2fStage.asset)[InvestorManifest](assetlink://Assets%2fInvestorMod%2fInvestor+Survivor%2fInvestorManifest.asset)
      Assets\InvestorMod\Investor Survivor\Scripts\SkillStates\Investor\Lobby.cs(61,8):
      warning CS0618: ''NetworkServer'' is obsolete: ''The high level API classes
      are deprecated and will be removed in the future.'''
    context:
    - Assets\InvestorMod\Investor Survivor\Scripts\SkillStates\Investor\Lobby.cs (61:8)
  - logLevel: 1
    internalTime:
      ticks: 637751028900643640
    message: '[Stage(1 - StageAssemblies)](assetlink://Assets%2fInvestorMod%2fInvestor+Survivor%2fStage.asset)[InvestorManifest](assetlink://Assets%2fInvestorMod%2fInvestor+Survivor%2fInvestorManifest.asset)
      Assets\InvestorMod\Investor Survivor\Scripts\Assets.cs(100,4): warning CS0162:
      Unreachable code detected'
    context:
    - Assets\InvestorMod\Investor Survivor\Scripts\Assets.cs (100:4)
  - logLevel: 1
    internalTime:
      ticks: 637751028900643640
    message: '[Stage(1 - StageAssemblies)](assetlink://Assets%2fInvestorMod%2fInvestor+Survivor%2fStage.asset)[InvestorManifest](assetlink://Assets%2fInvestorMod%2fInvestor+Survivor%2fInvestorManifest.asset)
      Assets\InvestorMod\Investor Survivor\Scripts\Assets.cs(90,5): warning CS0162:
      Unreachable code detected'
    context:
    - Assets\InvestorMod\Investor Survivor\Scripts\Assets.cs (90:5)
  - logLevel: 1
    internalTime:
      ticks: 637751028900643640
    message: '[Stage(1 - StageAssemblies)](assetlink://Assets%2fInvestorMod%2fInvestor+Survivor%2fStage.asset)[InvestorManifest](assetlink://Assets%2fInvestorMod%2fInvestor+Survivor%2fInvestorManifest.asset)
      Assets\InvestorMod\Investor Survivor\Scripts\SkillStates\BaseStates\DeathState.cs(38,8):
      warning CS0618: ''NetworkServer'' is obsolete: ''The high level API classes
      are deprecated and will be removed in the future.'''
    context:
    - Assets\InvestorMod\Investor Survivor\Scripts\SkillStates\BaseStates\DeathState.cs
      (38:8)
  - logLevel: 1
    internalTime:
      ticks: 637751028900643640
    message: '[Stage(1 - StageAssemblies)](assetlink://Assets%2fInvestorMod%2fInvestor+Survivor%2fStage.asset)[InvestorManifest](assetlink://Assets%2fInvestorMod%2fInvestor+Survivor%2fInvestorManifest.asset)
      Assets\InvestorMod\Investor Survivor\Scripts\Assets.cs(34,5): warning CS0162:
      Unreachable code detected'
    context:
    - Assets\InvestorMod\Investor Survivor\Scripts\Assets.cs (34:5)
  - logLevel: 1
    internalTime:
      ticks: 637751028900643640
    message: '[Stage(1 - StageAssemblies)](assetlink://Assets%2fInvestorMod%2fInvestor+Survivor%2fStage.asset)[InvestorManifest](assetlink://Assets%2fInvestorMod%2fInvestor+Survivor%2fInvestorManifest.asset)
      Assets\InvestorMod\Investor Survivor\InvestorPlugin.cs(67,4): warning CS0618:
      ''ShaderConvert.ConvertAssetBundleShaders(AssetBundle, bool, bool)'' is obsolete:
      ''ShaderConvert will be removed in the future. Use ShaderConverter.ConvertStubbedShaders()
      instead.'''
    context:
    - Assets\InvestorMod\Investor Survivor\InvestorPlugin.cs (67:4)
  - logLevel: 1
    internalTime:
      ticks: 637751028900633638
    message: '[Stage(1 - StageAssemblies)](assetlink://Assets%2fInvestorMod%2fInvestor+Survivor%2fStage.asset)[InvestorManifest](assetlink://Assets%2fInvestorMod%2fInvestor+Survivor%2fInvestorManifest.asset)
      Assets\InvestorMod\Investor Survivor\InvestorPlugin.cs(10,31): warning CS0618:
      ''SecurityAction.RequestMinimum'' is obsolete: ''Assembly level declarative
      security is obsolete and is no longer enforced by the CLR by default. See http://go.microsoft.com/fwlink/?LinkID=155570
      for more information.'''
    context:
    - Assets\InvestorMod\Investor Survivor\InvestorPlugin.cs (10:31)
  - logLevel: 0
    internalTime:
      ticks: 637751028892208579
    message: '[Stage(1 - StageAssemblies)](assetlink://Assets%2fInvestorMod%2fInvestor+Survivor%2fStage.asset)[InvestorManifest](assetlink://Assets%2fInvestorMod%2fInvestor+Survivor%2fInvestorManifest.asset)
      Building : ThunderKit/Libraries/InvestorAssemblyDef.dll'
    context: []
  - logLevel: 1
    internalTime:
      ticks: 637751028890858283
    message: '[Stage(1 - StageAssemblies)](assetlink://Assets%2fInvestorMod%2fInvestor+Survivor%2fStage.asset)[MoonstormSharedUtils](assetlink://Packages%2fteammoonstorm-moonstormsharedutils%2fMoonstormSharedUtils.asset)
      No AssemblyDefinitions found, skipping'
    context: []
  - logLevel: 1
    internalTime:
      ticks: 637751028890048092
    message: '[Stage(1 - StageAssemblies)](assetlink://Assets%2fInvestorMod%2fInvestor+Survivor%2fStage.asset)[Microsoft_CSharp](assetlink://Packages%2friskofthunder-microsoft_csharp%2fMicrosoft_CSharp.asset)
      No AssemblyDefinitions found, skipping'
    context: []
  - logLevel: 1
    internalTime:
      ticks: 637751028889087873
    message: '[Stage(1 - StageAssemblies)](assetlink://Assets%2fInvestorMod%2fInvestor+Survivor%2fStage.asset)[FixPluginTypesSerialization](assetlink://Packages%2friskofthunder-fixplugintypesserialization%2fFixPluginTypesSerialization.asset)
      No AssemblyDefinitions found, skipping'
    context: []
  - logLevel: 1
    internalTime:
      ticks: 637751028888287693
    message: '[Stage(1 - StageAssemblies)](assetlink://Assets%2fInvestorMod%2fInvestor+Survivor%2fStage.asset)[R2API](assetlink://Packages%2ftristanmcpherson-r2api%2fR2API.asset)
      No AssemblyDefinitions found, skipping'
    context: []
  - logLevel: 1
    internalTime:
      ticks: 637751028887477509
    message: '[Stage(1 - StageAssemblies)](assetlink://Assets%2fInvestorMod%2fInvestor+Survivor%2fStage.asset)[HookGenPatcher](assetlink://Packages%2friskofthunder-hookgenpatcher%2fHookGenPatcher.asset)
      No AssemblyDefinitions found, skipping'
    context: []
  - logLevel: 1
    internalTime:
      ticks: 637751028886637320
    message: '[Stage(1 - StageAssemblies)](assetlink://Assets%2fInvestorMod%2fInvestor+Survivor%2fStage.asset)[BepInExPack](assetlink://Packages%2fbbepis-bepinexpack%2fBepInExPack.asset)
      No AssemblyDefinitions found, skipping'
    context: []
  - logLevel: 0
    internalTime:
      ticks: 637751028885657102
    message: '[Stage(1 - StageAssemblies)](assetlink://Assets%2fInvestorMod%2fInvestor+Survivor%2fStage.asset)
      Execute Job'
    context: []
  - logLevel: 0
    internalTime:
      ticks: 637751028221773915
    message: '[Stage(0 - StageAssetBundles)](assetlink://Assets%2fInvestorMod%2fInvestor+Survivor%2fStage.asset)[InvestorManifest](assetlink://Assets%2fInvestorMod%2fInvestor+Survivor%2fInvestorManifest.asset)
      Creating 1 AssetBundles'
    context:
    - "investorassetbundle\r\n[InvestorAssets](assetlink://Assets%2fInvestorMod%2fInvestor+Survivor%2fInvestorAssets.asset)\r\n\r\n[InvestorBody](assetlink://Assets%2fInvestorMod%2fInvestor+Survivor%2fInvestorAssets%2fInvestorBody.prefab)\r\n\r\n[InvestorDisplay](assetlink://Assets%2fInvestorMod%2fInvestor+Survivor%2fInvestorAssets%2fInvestorDisplay.prefab)\r\n\r\n[animInvestor](assetlink://Assets%2fInvestorMod%2fInvestor+Survivor%2fInvestorAssets%2fAnimations%2fanimInvestor.controller)\r\n\r\n[animInvestorMenu](assetlink://Assets%2fInvestorMod%2fInvestor+Survivor%2fInvestorAssets%2fAnimations%2fanimInvestorMenu.controller)\r\n\r\n[Armature_AimPitch](assetlink://Assets%2fInvestorMod%2fInvestor+Survivor%2fInvestorAssets%2fAnimations%2fArmature_AimPitch.anim)\r\n\r\n[Armature_AimYaw](assetlink://Assets%2fInvestorMod%2fInvestor+Survivor%2fInvestorAssets%2fAnimations%2fArmature_AimYaw.anim)\r\n\r\n[Armature_Ascend](assetlink://Assets%2fInvestorMod%2fInvestor+Survivor%2fInvestorAssets%2fAnimations%2fArmature_Ascend.anim)\r\n\r\n[Armature_CallPhone](assetlink://Assets%2fInvestorMod%2fInvestor+Survivor%2fInvestorAssets%2fAnimations%2fArmature_CallPhone.anim)\r\n\r\n[Armature_Descend](assetlink://Assets%2fInvestorMod%2fInvestor+Survivor%2fInvestorAssets%2fAnimations%2fArmature_Descend.anim)\r\n\r\n[Armature_Flinch](assetlink://Assets%2fInvestorMod%2fInvestor+Survivor%2fInvestorAssets%2fAnimations%2fArmature_Flinch.anim)\r\n\r\n[Armature_Idle](assetlink://Assets%2fInvestorMod%2fInvestor+Survivor%2fInvestorAssets%2fAnimations%2fArmature_Idle.anim)\r\n\r\n[Armature_IdleIn](assetlink://Assets%2fInvestorMod%2fInvestor+Survivor%2fInvestorAssets%2fAnimations%2fArmature_IdleIn.anim)\r\n\r\n[Armature_Jump](assetlink://Assets%2fInvestorMod%2fInvestor+Survivor%2fInvestorAssets%2fAnimations%2fArmature_Jump.anim)\r\n\r\n[Armature_MenuIdle](assetlink://Assets%2fInvestorMod%2fInvestor+Survivor%2fInvestorAssets%2fAnimations%2fArmature_MenuIdle.anim)\r\n\r\n[Armature_OnThePhone](assetlink://Assets%2fInvestorMod%2fInvestor+Survivor%2fInvestorAssets%2fAnimations%2fArmature_OnThePhone.anim)\r\n\r\n[Armature_PrimaryAttack_L](assetlink://Assets%2fInvestorMod%2fInvestor+Survivor%2fInvestorAssets%2fAnimations%2fArmature_PrimaryAttack_L.anim)\r\n\r\n[Armature_PrimaryAttack_LOLD](assetlink://Assets%2fInvestorMod%2fInvestor+Survivor%2fInvestorAssets%2fAnimations%2fArmature_PrimaryAttack_LOLD.anim)\r\n\r\n[Armature_PrimaryAttack_R](assetlink://Assets%2fInvestorMod%2fInvestor+Survivor%2fInvestorAssets%2fAnimations%2fArmature_PrimaryAttack_R.anim)\r\n\r\n[Armature_PrimaryAttack_ROLD](assetlink://Assets%2fInvestorMod%2fInvestor+Survivor%2fInvestorAssets%2fAnimations%2fArmature_PrimaryAttack_ROLD.anim)\r\n\r\n[Armature_RestIdle](assetlink://Assets%2fInvestorMod%2fInvestor+Survivor%2fInvestorAssets%2fAnimations%2fArmature_RestIdle.anim)\r\n\r\n[Armature_RestIdleIn](assetlink://Assets%2fInvestorMod%2fInvestor+Survivor%2fInvestorAssets%2fAnimations%2fArmature_RestIdleIn.anim)\r\n\r\n[Armature_SprintS](assetlink://Assets%2fInvestorMod%2fInvestor+Survivor%2fInvestorAssets%2fAnimations%2fArmature_SprintS.anim)\r\n\r\n[Armature_SprintW](assetlink://Assets%2fInvestorMod%2fInvestor+Survivor%2fInvestorAssets%2fAnimations%2fArmature_SprintW.anim)\r\n\r\n[Armature_TapPhoneScreen](assetlink://Assets%2fInvestorMod%2fInvestor+Survivor%2fInvestorAssets%2fAnimations%2fArmature_TapPhoneScreen.anim)\r\n\r\n[Armature_TPose](assetlink://Assets%2fInvestorMod%2fInvestor+Survivor%2fInvestorAssets%2fAnimations%2fArmature_TPose.anim)\r\n\r\n[Armature_WalkL](assetlink://Assets%2fInvestorMod%2fInvestor+Survivor%2fInvestorAssets%2fAnimations%2fArmature_WalkL.anim)\r\n\r\n[Armature_WalkR](assetlink://Assets%2fInvestorMod%2fInvestor+Survivor%2fInvestorAssets%2fAnimations%2fArmature_WalkR.anim)\r\n\r\n[Armature_WalkS](assetlink://Assets%2fInvestorMod%2fInvestor+Survivor%2fInvestorAssets%2fAnimations%2fArmature_WalkS.anim)\r\n\r\n[Armature_WalkW](assetlink://Assets%2fInvestorMod%2fInvestor+Survivor%2fInvestorAssets%2fAnimations%2fArmature_WalkW.anim)\r\n\r\n[mskInvestorAimPitch](assetlink://Assets%2fInvestorMod%2fInvestor+Survivor%2fInvestorAssets%2fAnimations%2fmskInvestorAimPitch.mask)\r\n\r\n[mskInvestorAimYaw](assetlink://Assets%2fInvestorMod%2fInvestor+Survivor%2fInvestorAssets%2fAnimations%2fmskInvestorAimYaw.mask)\r\n\r\n[mskInvestorArmLeft](assetlink://Assets%2fInvestorMod%2fInvestor+Survivor%2fInvestorAssets%2fAnimations%2fmskInvestorArmLeft.mask)\r\n\r\n[mskInvestorArmRight](assetlink://Assets%2fInvestorMod%2fInvestor+Survivor%2fInvestorAssets%2fAnimations%2fmskInvestorArmRight.mask)\r\n\r\n[mskInvestorBase](assetlink://Assets%2fInvestorMod%2fInvestor+Survivor%2fInvestorAssets%2fAnimations%2fmskInvestorBase.mask)\r\n\r\n[mskInvestorFlinch](assetlink://Assets%2fInvestorMod%2fInvestor+Survivor%2fInvestorAssets%2fAnimations%2fmskInvestorFlinch.mask)\r\n\r\n[mskInvestorGestureAdditive](assetlink://Assets%2fInvestorMod%2fInvestor+Survivor%2fInvestorAssets%2fAnimations%2fmskInvestorGestureAdditive.mask)\r\n\r\n[mskInvestorGestureOverride](assetlink://Assets%2fInvestorMod%2fInvestor+Survivor%2fInvestorAssets%2fAnimations%2fmskInvestorGestureOverride.mask)\r\n\r\n[mskInvestorImpact](assetlink://Assets%2fInvestorMod%2fInvestor+Survivor%2fInvestorAssets%2fAnimations%2fmskInvestorImpact.mask)\r\n\r\n[mdlInvestor](assetlink://Assets%2fInvestorMod%2fInvestor+Survivor%2fInvestorAssets%2fPrefab%2fmdlInvestor.prefab)\r\n\r\n[StockTickerUI](assetlink://Assets%2fInvestorMod%2fInvestor+Survivor%2fInvestorAssets%2fPrefab%2fStockTickerUI.prefab)\r\n\r\n[Coin5Mesh](assetlink://Assets%2fInvestorMod%2fInvestor+Survivor%2fInvestorAssets%2fPrefab%2fGhosts%2fCoin5Mesh.asset)\r\n\r\n[coinMat](assetlink://Assets%2fInvestorMod%2fInvestor+Survivor%2fInvestorAssets%2fPrefab%2fGhosts%2fcoinMat.mat)\r\n\r\n[ProjectileCoinGhost](assetlink://Assets%2fInvestorMod%2fInvestor+Survivor%2fInvestorAssets%2fPrefab%2fGhosts%2fProjectileCoinGhost.prefab)\r\n\r\n[texCoinDiffuse](assetlink://Assets%2fInvestorMod%2fInvestor+Survivor%2fInvestorAssets%2fPrefab%2fGhosts%2ftexCoinDiffuse.png)\r\n\r\n[texCoinNormal](assetlink://Assets%2fInvestorMod%2fInvestor+Survivor%2fInvestorAssets%2fPrefab%2fGhosts%2ftexCoinNormal.png)\r\n\r\n[CoinProjectile](assetlink://Assets%2fInvestorMod%2fInvestor+Survivor%2fInvestorAssets%2fPrefab%2fProjectiles%2fCoinProjectile.prefab)\r\n\r\n[investordiffspec](assetlink://Assets%2fInvestorMod%2fInvestor+Survivor%2fInvestorAssets%2fResources%2finvestordiffspec.tga)\r\n\r\n[InvestorEmission](assetlink://Assets%2fInvestorMod%2fInvestor+Survivor%2fInvestorAssets%2fResources%2fInvestorEmission.png)\r\n\r\n[InvestorPalette](assetlink://Assets%2fInvestorMod%2fInvestor+Survivor%2fInvestorAssets%2fResources%2fInvestorPalette.png)\r\n\r\n[matInvestor](assetlink://Assets%2fInvestorMod%2fInvestor+Survivor%2fInvestorAssets%2fResources%2fmatInvestor.mat)\r\n\r\n[VertexColourTest](assetlink://Assets%2fInvestorMod%2fInvestor+Survivor%2fInvestorAssets%2fResources%2fVertexColourTest.fbx)\r\n\r\n[bombard_](assetlink://Assets%2fInvestorMod%2fInvestor+Survivor%2fInvestorAssets%2fResources%2fFonts%2fbombard_.mat)\r\n\r\n[BOMBARD_](assetlink://Assets%2fInvestorMod%2fInvestor+Survivor%2fInvestorAssets%2fResources%2fFonts%2fBOMBARD_.ttf)\r\n\r\n[ChartMat](assetlink://Assets%2fInvestorMod%2fInvestor+Survivor%2fInvestorAssets%2fResources%2fVis%2fChartMat.mat)\r\n\r\n[ChartRenderTex](assetlink://Assets%2fInvestorMod%2fInvestor+Survivor%2fInvestorAssets%2fResources%2fVis%2fChartRenderTex.renderTexture)\r\n\r\n[ChartRTMat](assetlink://Assets%2fInvestorMod%2fInvestor+Survivor%2fInvestorAssets%2fResources%2fVis%2fChartRTMat.mat)\r\n\r\n[ChartVertexColours](assetlink://Assets%2fInvestorMod%2fInvestor+Survivor%2fInvestorAssets%2fResources%2fVis%2fChartVertexColours.mat)\r\n\r\n[ColourGrid](assetlink://Assets%2fInvestorMod%2fInvestor+Survivor%2fInvestorAssets%2fResources%2fVis%2fColourGrid.png)\r\n\r\n[FontMat](assetlink://Assets%2fInvestorMod%2fInvestor+Survivor%2fInvestorAssets%2fResources%2fVis%2fFontMat.mat)\r\n\r\n[ProjectorMat](assetlink://Assets%2fInvestorMod%2fInvestor+Survivor%2fInvestorAssets%2fResources%2fVis%2fProjectorMat.mat)\r\n\r\n[UIMat](assetlink://Assets%2fInvestorMod%2fInvestor+Survivor%2fInvestorAssets%2fResources%2fVis%2fUIMat.mat)\r\n\r\n[UIMatTxt](assetlink://Assets%2fInvestorMod%2fInvestor+Survivor%2fInvestorAssets%2fResources%2fVis%2fUIMatTxt.mat)\r\n\r\n[ArrowAnimCont](assetlink://Assets%2fInvestorMod%2fInvestor+Survivor%2fInvestorAssets%2fResources%2fVis%2fanims%2fArrowAnimCont.controller)\r\n\r\n[ArrowBounceDown](assetlink://Assets%2fInvestorMod%2fInvestor+Survivor%2fInvestorAssets%2fResources%2fVis%2fanims%2fArrowBounceDown.anim)\r\n\r\n[ArrowBounceUp](assetlink://Assets%2fInvestorMod%2fInvestor+Survivor%2fInvestorAssets%2fResources%2fVis%2fanims%2fArrowBounceUp.anim)\r\n\r\n[ArrowPop](assetlink://Assets%2fInvestorMod%2fInvestor+Survivor%2fInvestorAssets%2fResources%2fVis%2fanims%2fArrowPop.anim)\r\n\r\n[FlavourAnimCont](assetlink://Assets%2fInvestorMod%2fInvestor+Survivor%2fInvestorAssets%2fResources%2fVis%2fanims%2fFlavourAnimCont.controller)\r\n\r\n[FlavourHidden](assetlink://Assets%2fInvestorMod%2fInvestor+Survivor%2fInvestorAssets%2fResources%2fVis%2fanims%2fFlavourHidden.anim)\r\n\r\n[FlavourPopup](assetlink://Assets%2fInvestorMod%2fInvestor+Survivor%2fInvestorAssets%2fResources%2fVis%2fanims%2fFlavourPopup.anim)\r\n\r\n[InvestAbilityAnimCont](assetlink://Assets%2fInvestorMod%2fInvestor+Survivor%2fInvestorAssets%2fResources%2fVis%2fanims%2fInvestAbilityAnimCont.controller)\r\n\r\n[InvestChargeUIDeploy](assetlink://Assets%2fInvestorMod%2fInvestor+Survivor%2fInvestorAssets%2fResources%2fVis%2fanims%2fInvestChargeUIDeploy.anim)\r\n\r\n[InvestChargeUIRetract](assetlink://Assets%2fInvestorMod%2fInvestor+Survivor%2fInvestorAssets%2fResources%2fVis%2fanims%2fInvestChargeUIRetract.anim)\r\n\r\n[InvestChargeUIRetracted](assetlink://Assets%2fInvestorMod%2fInvestor+Survivor%2fInvestorAssets%2fResources%2fVis%2fanims%2fInvestChargeUIRetracted.anim)\r\n\r\n[InvestUIAnimatorCont](assetlink://Assets%2fInvestorMod%2fInvestor+Survivor%2fInvestorAssets%2fResources%2fVis%2fanims%2fInvestUIAnimatorCont.controller)\r\n\r\n[InvestUIDeploy](assetlink://Assets%2fInvestorMod%2fInvestor+Survivor%2fInvestorAssets%2fResources%2fVis%2fanims%2fInvestUIDeploy.anim)\r\n\r\n[InvestUIRetract](assetlink://Assets%2fInvestorMod%2fInvestor+Survivor%2fInvestorAssets%2fResources%2fVis%2fanims%2fInvestUIRetract.anim)\r\n\r\n[InvestUIRetracted](assetlink://Assets%2fInvestorMod%2fInvestor+Survivor%2fInvestorAssets%2fResources%2fVis%2fanims%2fInvestUIRetracted.anim)\r\n\r\n[texChevronSimpleTriangle](assetlink://Assets%2fInvestorMod%2fInvestor+Survivor%2fInvestorAssets%2fResources%2fVis%2ficons%2ftexChevronSimpleTriangle.png)\r\n\r\n[texUIAnimateSliceNakedButton](assetlink://Assets%2fInvestorMod%2fInvestor+Survivor%2fInvestorAssets%2fResources%2fVis%2ficons%2ftexUIAnimateSliceNakedButton.png)\r\n\r\n[texUIBackdrop](assetlink://Assets%2fInvestorMod%2fInvestor+Survivor%2fInvestorAssets%2fResources%2fVis%2ficons%2ftexUIBackdrop.png)\r\n\r\n[texUIBackdropFadedEnds](assetlink://Assets%2fInvestorMod%2fInvestor+Survivor%2fInvestorAssets%2fResources%2fVis%2ficons%2ftexUIBackdropFadedEnds.png)\r\n\r\n[texUICleanButton](assetlink://Assets%2fInvestorMod%2fInvestor+Survivor%2fInvestorAssets%2fResources%2fVis%2ficons%2ftexUICleanButton.png)\r\n\r\n[texUICleanPanel](assetlink://Assets%2fInvestorMod%2fInvestor+Survivor%2fInvestorAssets%2fResources%2fVis%2ficons%2ftexUICleanPanel.png)\r\n\r\n[texUICornerSquared](assetlink://Assets%2fInvestorMod%2fInvestor+Survivor%2fInvestorAssets%2fResources%2fVis%2ficons%2ftexUICornerSquared.png)\r\n\r\n[texUICornerTier1](assetlink://Assets%2fInvestorMod%2fInvestor+Survivor%2fInvestorAssets%2fResources%2fVis%2ficons%2ftexUICornerTier1.png)\r\n\r\n[texUICornerTier2](assetlink://Assets%2fInvestorMod%2fInvestor+Survivor%2fInvestorAssets%2fResources%2fVis%2ficons%2ftexUICornerTier2.png)\r\n\r\n[texUICornerTier3](assetlink://Assets%2fInvestorMod%2fInvestor+Survivor%2fInvestorAssets%2fResources%2fVis%2ficons%2ftexUICornerTier3.png)\r\n\r\n[texUIEngiMissileLockedOn](assetlink://Assets%2fInvestorMod%2fInvestor+Survivor%2fInvestorAssets%2fResources%2fVis%2ficons%2ftexUIEngiMissileLockedOn.png)\r\n\r\n[texUIEngiMissilePaint](assetlink://Assets%2fInvestorMod%2fInvestor+Survivor%2fInvestorAssets%2fResources%2fVis%2ficons%2ftexUIEngiMissilePaint.png)\r\n\r\n[texUIFlashSquare1](assetlink://Assets%2fInvestorMod%2fInvestor+Survivor%2fInvestorAssets%2fResources%2fVis%2ficons%2ftexUIFlashSquare1.png)\r\n\r\n[texUIHandle](assetlink://Assets%2fInvestorMod%2fInvestor+Survivor%2fInvestorAssets%2fResources%2fVis%2ficons%2ftexUIHandle.png)\r\n\r\n[texUIHeaderDouble](assetlink://Assets%2fInvestorMod%2fInvestor+Survivor%2fInvestorAssets%2fResources%2fVis%2ficons%2ftexUIHeaderDouble.png)\r\n\r\n[texUIHeaderSingle](assetlink://Assets%2fInvestorMod%2fInvestor+Survivor%2fInvestorAssets%2fResources%2fVis%2ficons%2ftexUIHeaderSingle.png)\r\n\r\n[texUIHighlightBoxOutline](assetlink://Assets%2fInvestorMod%2fInvestor+Survivor%2fInvestorAssets%2fResources%2fVis%2ficons%2ftexUIHighlightBoxOutline.png)\r\n\r\n[texUIHighlightBoxOutlineThick](assetlink://Assets%2fInvestorMod%2fInvestor+Survivor%2fInvestorAssets%2fResources%2fVis%2ficons%2ftexUIHighlightBoxOutlineThick.png)\r\n\r\n[texUIHighlightBoxOutlineThickIcon](assetlink://Assets%2fInvestorMod%2fInvestor+Survivor%2fInvestorAssets%2fResources%2fVis%2ficons%2ftexUIHighlightBoxOutlineThickIcon.png)\r\n\r\n[texUIHighlightExecute](assetlink://Assets%2fInvestorMod%2fInvestor+Survivor%2fInvestorAssets%2fResources%2fVis%2ficons%2ftexUIHighlightExecute.png)\r\n\r\n[texUIHighlightHeader](assetlink://Assets%2fInvestorMod%2fInvestor+Survivor%2fInvestorAssets%2fResources%2fVis%2ficons%2ftexUIHighlightHeader.png)\r\n\r\n[texUILaunchButton](assetlink://Assets%2fInvestorMod%2fInvestor+Survivor%2fInvestorAssets%2fResources%2fVis%2ficons%2ftexUILaunchButton.png)\r\n\r\n[texUILaunchButtonDepressed](assetlink://Assets%2fInvestorMod%2fInvestor+Survivor%2fInvestorAssets%2fResources%2fVis%2ficons%2ftexUILaunchButtonDepressed.png)\r\n\r\n[texUIMainRect](assetlink://Assets%2fInvestorMod%2fInvestor+Survivor%2fInvestorAssets%2fResources%2fVis%2ficons%2ftexUIMainRect.png)\r\n\r\n[texUIOutlineOnly](assetlink://Assets%2fInvestorMod%2fInvestor+Survivor%2fInvestorAssets%2fResources%2fVis%2ficons%2ftexUIOutlineOnly.png)\r\n\r\n[texUIPopupRect](assetlink://Assets%2fInvestorMod%2fInvestor+Survivor%2fInvestorAssets%2fResources%2fVis%2ficons%2ftexUIPopupRect.png)\r\n\r\n[InvestorTest](assetlink://Assets%2fInvestorMod%2fInvestor+Survivor%2fFBX%2fInvestorTest.fbx)\r\n\r\n[famInvestorPrimary](assetlink://Assets%2fInvestorMod%2fInvestor+Survivor%2fDefinitions%2fSkills%2fFamilies%2ffamInvestorPrimary.asset)\r\n\r\n[famInvestorSecondary](assetlink://Assets%2fInvestorMod%2fInvestor+Survivor%2fDefinitions%2fSkills%2fFamilies%2ffamInvestorSecondary.asset)\r\n\r\n[TaxEvasionBuffDef](assetlink://Assets%2fInvestorMod%2fInvestor+Survivor%2fDefinitions%2fBuffs%2fTaxEvasionBuffDef.asset)\r\n\r\n[InvestSkillDef](assetlink://Assets%2fInvestorMod%2fInvestor+Survivor%2fDefinitions%2fSkills%2fInvestSkillDef.asset)\r\n\r\n[famInvestorUtility](assetlink://Assets%2fInvestorMod%2fInvestor+Survivor%2fDefinitions%2fSkills%2fFamilies%2ffamInvestorUtility.asset)\r\n\r\n[ProjectorBounds](assetlink://Assets%2fInvestorMod%2fInvestor+Survivor%2fFBX%2fProjectorBounds.fbx)\r\n\r\n[Investor.SkillStates.TaxEvasion](assetlink://Assets%2fInvestorMod%2fInvestor+Survivor%2fDefinitions%2fSkills%2fStateConfigs%2fInvestor.SkillStates.TaxEvasion.asset)\r\n\r\n[LobbySkillDef](assetlink://Assets%2fInvestorMod%2fInvestor+Survivor%2fDefinitions%2fSkills%2fLobbySkillDef.asset)\r\n\r\n[famInvestorSpecial](assetlink://Assets%2fInvestorMod%2fInvestor+Survivor%2fDefinitions%2fSkills%2fFamilies%2ffamInvestorSpecial.asset)\r\n\r\n[Investor.SkillStates.ThrowSpareChange](assetlink://Assets%2fInvestorMod%2fInvestor+Survivor%2fDefinitions%2fSkills%2fStateConfigs%2fInvestor.SkillStates.ThrowSpareChange.asset)\r\n\r\n[ccpInvestor](assetlink://Assets%2fInvestorMod%2fInvestor+Survivor%2fDefinitions%2fccpInvestor.asset)\r\n\r\n[idrsInvestor](assetlink://Assets%2fInvestorMod%2fInvestor+Survivor%2fDefinitions%2fidrsInvestor.asset)\r\n\r\n[EmploySkillDef](assetlink://Assets%2fInvestorMod%2fInvestor+Survivor%2fDefinitions%2fSkills%2fEmploySkillDef.asset)\r\n\r\n[SpareChangeSkillDef](assetlink://Assets%2fInvestorMod%2fInvestor+Survivor%2fDefinitions%2fSkills%2fSpareChangeSkillDef.asset)\r\n\r\n[TaxEvasionSkillDef](assetlink://Assets%2fInvestorMod%2fInvestor+Survivor%2fDefinitions%2fSkills%2fTaxEvasionSkillDef.asset)\r\n\r\n[InvestorDef](assetlink://Assets%2fInvestorMod%2fInvestor+Survivor%2fDefinitions%2fInvestorDef.asset)\r\n\r\n[Investor.SkillStates.HireEnemy](assetlink://Assets%2fInvestorMod%2fInvestor+Survivor%2fDefinitions%2fSkills%2fStateConfigs%2fInvestor.SkillStates.HireEnemy.asset)\r\n\r\n[Investor.SkillStates.Lobby](assetlink://Assets%2fInvestorMod%2fInvestor+Survivor%2fDefinitions%2fSkills%2fStateConfigs%2fInvestor.SkillStates.Lobby.asset)\r\n\r\n[Investor.SkillStates.Employ](assetlink://Assets%2fInvestorMod%2fInvestor+Survivor%2fDefinitions%2fSkills%2fStateConfigs%2fInvestor.SkillStates.Employ.asset)\r\n\r\n[stubbed_hgstandard](assetlink://Assets%2fStubbedShaders%2fdeferred%2fstubbed_hgstandard.shader)\r\n\r\n\r\n"
  - logLevel: 0
    internalTime:
      ticks: 637751028200617266
    message: '[Stage(0 - StageAssetBundles)](assetlink://Assets%2fInvestorMod%2fInvestor+Survivor%2fStage.asset)
      Execute Job'
    context: []
  - logLevel: 0
    internalTime:
      ticks: 637751028200577235
    message: '[Stage](assetlink://Assets%2fInvestorMod%2fInvestor+Survivor%2fStage.asset)
      Clearing PipelineJob error states'
    context: []
  - logLevel: 0
    internalTime:
      ticks: 637751028200547216
    message: '[Stage](assetlink://Assets%2fInvestorMod%2fInvestor+Survivor%2fStage.asset)
      Execute Pipeline'
    context: []
