%YAML 1.1
%TAG !u! tag:unity3d.com,2011:
--- !u!114 &11400000
MonoBehaviour:
  m_ObjectHideFlags: 0
  m_CorrespondingSourceObject: {fileID: 0}
  m_PrefabInstance: {fileID: 0}
  m_PrefabAsset: {fileID: 0}
  m_GameObject: {fileID: 0}
  m_Enabled: 1
  m_EditorHideFlags: 0
  m_Script: {fileID: 11500000, guid: 2f9af1c6015733a42be940cc462aa7ed, type: 3}
  m_Name: Log 59
  m_EditorClassIdentifier: 
  pipeline: {fileID: 11400000, guid: c2cb30752f3f3e34dbcc46f5b79e500f, type: 2}
  creationDate:
    ticks: 637738095867332084
  entries:
  - logLevel: 0
    internalTime:
      ticks: 637738096431043673
    message: '[Stage](assetlink://Assets%2fInvestorMod%2fInvestor+Survivor%2fStage.asset)
      Finished execution'
    context: []
  - logLevel: 0
    internalTime:
      ticks: 637738096431003664
    message: "[Stage(4 - Copy)](assetlink://Assets%2fInvestorMod%2fInvestor+Survivor%2fStage.asset)
      ``` Q:\\Unity Projects\\InvestorROR2\\ThunderKit\\Staging\\The Investor\\plugins\\The
      Investor\\ ``` to ``` C:\\Program Files (x86)\\Steam\\steamapps\\common\\Risk
      of Rain 2\\BepInEx\\plugins\\The Investor\\plugins\\The Investor\\ ```\r\n\r\n\r\nCopied
      ``` Q:/Unity Projects/InvestorROR2/ThunderKit/Staging/The Investor/plugins/The
      Investor/ ``` to ``` C:/Program Files (x86)/Steam/steamapps/common/Risk of Rain
      2/BepInEx/plugins/The Investor/plugins/The Investor/ ```"
    context:
    - "Copied Files\r\n\r\n 1. C:/Program Files (x86)/Steam/steamapps/common/Risk
      of Rain 2/BepInEx/plugins/The Investor/plugins/The Investor/InvestorAssemblyDef.dll\r\n\r\n
      2. C:/Program Files (x86)/Steam/steamapps/common/Risk of Rain 2/BepInEx/plugins/The
      Investor/plugins/The Investor/InvestorAssemblyDef.pdb\r\n\r\n 3. C:/Program
      Files (x86)/Steam/steamapps/common/Risk of Rain 2/BepInEx/plugins/The Investor/plugins/The
      Investor/investorassetbundle\r\n\r\n 4. C:/Program Files (x86)/Steam/steamapps/common/Risk
      of Rain 2/BepInEx/plugins/The Investor/plugins/The Investor/investorassetbundle.manifest\r\n\r\n
      5. C:/Program Files (x86)/Steam/steamapps/common/Risk of Rain 2/BepInEx/plugins/The
      Investor/plugins/The Investor/The Investor.manifest"
  - logLevel: 0
    internalTime:
      ticks: 637738096430193497
    message: '[Stage(4 - Copy)](assetlink://Assets%2fInvestorMod%2fInvestor+Survivor%2fStage.asset)
      Execute Job'
    context: []
  - logLevel: 0
    internalTime:
      ticks: 637738096430163479
    message: '[Stage(3 - StageManifestFiles)](assetlink://Assets%2fInvestorMod%2fInvestor+Survivor%2fStage.asset)
      Execute Job'
    context: []
  - logLevel: 0
    internalTime:
      ticks: 637738096430163479
    message: '[Stage(2 - StageDependencies)](assetlink://Assets%2fInvestorMod%2fInvestor+Survivor%2fStage.asset)[R2API](assetlink://Packages%2ftristanmcpherson-r2api%2fR2API.asset)
      staged in ThunderKit/Staging'
    context:
    - "Staged Files\r\n\r\nFrom Packages\\R2API\\icon.png\r\n\r\n  To ThunderKit/Staging\\R2API\\icon.png\r\n\r\nFrom
      Packages\\R2API\\manifest.json\r\n\r\n  To ThunderKit/Staging\\R2API\\manifest.json\r\n\r\nFrom
      Packages\\R2API\\package.json\r\n\r\n  To ThunderKit/Staging\\R2API\\package.json\r\n\r\nFrom
      Packages\\R2API\\R2API.asset\r\n\r\n  To ThunderKit/Staging\\R2API\\R2API.asset\r\n\r\nFrom
      Packages\\R2API\\README.md\r\n\r\n  To ThunderKit/Staging\\R2API\\README.md\r\n\r\nFrom
      Packages\\R2API\\plugins\\R2API\\R2API.dll\r\n\r\n  To ThunderKit/Staging\\R2API\\plugins\\R2API\\R2API.dll\r\n\r\nFrom
      Packages\\R2API\\plugins\\R2API\\R2API.xml\r\n\r\n  To ThunderKit/Staging\\R2API\\plugins\\R2API\\R2API.xml"
  - logLevel: 0
    internalTime:
      ticks: 637738096429693367
    message: '[Stage(2 - StageDependencies)](assetlink://Assets%2fInvestorMod%2fInvestor+Survivor%2fStage.asset)[HookGenPatcher](assetlink://Packages%2friskofthunder-hookgenpatcher%2fHookGenPatcher.asset)
      staged in ThunderKit/Staging'
    context:
    - "Staged Files\r\n\r\nFrom Packages\\HookGenPatcher\\HookGenPatcher.asset\r\n\r\n
      \ To ThunderKit/Staging\\HookGenPatcher\\HookGenPatcher.asset\r\n\r\nFrom Packages\\HookGenPatcher\\icon.png\r\n\r\n
      \ To ThunderKit/Staging\\HookGenPatcher\\icon.png\r\n\r\nFrom Packages\\HookGenPatcher\\manifest.json\r\n\r\n
      \ To ThunderKit/Staging\\HookGenPatcher\\manifest.json\r\n\r\nFrom Packages\\HookGenPatcher\\package.json\r\n\r\n
      \ To ThunderKit/Staging\\HookGenPatcher\\package.json\r\n\r\nFrom Packages\\HookGenPatcher\\README.md\r\n\r\n
      \ To ThunderKit/Staging\\HookGenPatcher\\README.md\r\n\r\nFrom Packages\\HookGenPatcher\\BepInEx\\patchers\\Bepinex.MonoMod.HookGenPatcher\\BepInEx.MonoMod.HookGenPatcher.dll\r\n\r\n
      \ To ThunderKit/Staging\\HookGenPatcher\\BepInEx\\patchers\\Bepinex.MonoMod.HookGenPatcher\\BepInEx.MonoMod.HookGenPatcher.dll\r\n\r\nFrom
      Packages\\HookGenPatcher\\BepInEx\\patchers\\Bepinex.MonoMod.HookGenPatcher\\Bepinex.Monomod.HookGenPatcher.pdb\r\n\r\n
      \ To ThunderKit/Staging\\HookGenPatcher\\BepInEx\\patchers\\Bepinex.MonoMod.HookGenPatcher\\Bepinex.Monomod.HookGenPatcher.pdb\r\n\r\nFrom
      Packages\\HookGenPatcher\\BepInEx\\patchers\\Bepinex.MonoMod.HookGenPatcher\\MonoMod.exe\r\n\r\n
      \ To ThunderKit/Staging\\HookGenPatcher\\BepInEx\\patchers\\Bepinex.MonoMod.HookGenPatcher\\MonoMod.exe\r\n\r\nFrom
      Packages\\HookGenPatcher\\BepInEx\\patchers\\Bepinex.MonoMod.HookGenPatcher\\MonoMod.RuntimeDetour.HookGen.exe\r\n\r\n
      \ To ThunderKit/Staging\\HookGenPatcher\\BepInEx\\patchers\\Bepinex.MonoMod.HookGenPatcher\\MonoMod.RuntimeDetour.HookGen.exe\r\n\r\nFrom
      Packages\\HookGenPatcher\\BepInEx\\patchers\\Bepinex.MonoMod.HookGenPatcher\\MonoMod.RuntimeDetour.HookGen.xml\r\n\r\n
      \ To ThunderKit/Staging\\HookGenPatcher\\BepInEx\\patchers\\Bepinex.MonoMod.HookGenPatcher\\MonoMod.RuntimeDetour.HookGen.xml\r\n\r\nFrom
      Packages\\HookGenPatcher\\BepInEx\\patchers\\Bepinex.MonoMod.HookGenPatcher\\MonoMod.xml\r\n\r\n
      \ To ThunderKit/Staging\\HookGenPatcher\\BepInEx\\patchers\\Bepinex.MonoMod.HookGenPatcher\\MonoMod.xml"
  - logLevel: 0
    internalTime:
      ticks: 637738096429053237
    message: '[Stage(2 - StageDependencies)](assetlink://Assets%2fInvestorMod%2fInvestor+Survivor%2fStage.asset)[BepInExPack](assetlink://Packages%2fbbepis-bepinexpack%2fBepInExPack.asset)
      staged in ThunderKit/Staging'
    context:
    - "Staged Files\r\n\r\nFrom Packages\\BepInExPack\\BepInExPack.asset\r\n\r\n  To
      ThunderKit/Staging\\BepInExPack\\BepInExPack.asset\r\n\r\nFrom Packages\\BepInExPack\\icon.png\r\n\r\n
      \ To ThunderKit/Staging\\BepInExPack\\icon.png\r\n\r\nFrom Packages\\BepInExPack\\manifest.json\r\n\r\n
      \ To ThunderKit/Staging\\BepInExPack\\manifest.json\r\n\r\nFrom Packages\\BepInExPack\\package.json\r\n\r\n
      \ To ThunderKit/Staging\\BepInExPack\\package.json\r\n\r\nFrom Packages\\BepInExPack\\README.md\r\n\r\n
      \ To ThunderKit/Staging\\BepInExPack\\README.md\r\n\r\nFrom Packages\\BepInExPack\\BepInExPack\\doorstop_config.ini\r\n\r\n
      \ To ThunderKit/Staging\\BepInExPack\\BepInExPack\\doorstop_config.ini\r\n\r\nFrom
      Packages\\BepInExPack\\BepInExPack\\winhttp.dll\r\n\r\n  To ThunderKit/Staging\\BepInExPack\\BepInExPack\\winhttp.dll\r\n\r\nFrom
      Packages\\BepInExPack\\BepInExPack\\BepInEx\\config\\BepInEx.cfg\r\n\r\n  To
      ThunderKit/Staging\\BepInExPack\\BepInExPack\\BepInEx\\config\\BepInEx.cfg\r\n\r\nFrom
      Packages\\BepInExPack\\BepInExPack\\BepInEx\\core\\0Harmony.dll\r\n\r\n  To
      ThunderKit/Staging\\BepInExPack\\BepInExPack\\BepInEx\\core\\0Harmony.dll\r\n\r\nFrom
      Packages\\BepInExPack\\BepInExPack\\BepInEx\\core\\0Harmony.xml\r\n\r\n  To
      ThunderKit/Staging\\BepInExPack\\BepInExPack\\BepInEx\\core\\0Harmony.xml\r\n\r\nFrom
      Packages\\BepInExPack\\BepInExPack\\BepInEx\\core\\0Harmony20.dll\r\n\r\n  To
      ThunderKit/Staging\\BepInExPack\\BepInExPack\\BepInEx\\core\\0Harmony20.dll\r\n\r\nFrom
      Packages\\BepInExPack\\BepInExPack\\BepInEx\\core\\BepInEx.dll\r\n\r\n  To ThunderKit/Staging\\BepInExPack\\BepInExPack\\BepInEx\\core\\BepInEx.dll\r\n\r\nFrom
      Packages\\BepInExPack\\BepInExPack\\BepInEx\\core\\BepInEx.Harmony.dll\r\n\r\n
      \ To ThunderKit/Staging\\BepInExPack\\BepInExPack\\BepInEx\\core\\BepInEx.Harmony.dll\r\n\r\nFrom
      Packages\\BepInExPack\\BepInExPack\\BepInEx\\core\\BepInEx.Harmony.xml\r\n\r\n
      \ To ThunderKit/Staging\\BepInExPack\\BepInExPack\\BepInEx\\core\\BepInEx.Harmony.xml\r\n\r\nFrom
      Packages\\BepInExPack\\BepInExPack\\BepInEx\\core\\BepInEx.Preloader.dll\r\n\r\n
      \ To ThunderKit/Staging\\BepInExPack\\BepInExPack\\BepInEx\\core\\BepInEx.Preloader.dll\r\n\r\nFrom
      Packages\\BepInExPack\\BepInExPack\\BepInEx\\core\\BepInEx.Preloader.xml\r\n\r\n
      \ To ThunderKit/Staging\\BepInExPack\\BepInExPack\\BepInEx\\core\\BepInEx.Preloader.xml\r\n\r\nFrom
      Packages\\BepInExPack\\BepInExPack\\BepInEx\\core\\BepInEx.xml\r\n\r\n  To ThunderKit/Staging\\BepInExPack\\BepInExPack\\BepInEx\\core\\BepInEx.xml\r\n\r\nFrom
      Packages\\BepInExPack\\BepInExPack\\BepInEx\\core\\HarmonyXInterop.dll\r\n\r\n
      \ To ThunderKit/Staging\\BepInExPack\\BepInExPack\\BepInEx\\core\\HarmonyXInterop.dll\r\n\r\nFrom
      Packages\\BepInExPack\\BepInExPack\\BepInEx\\core\\Mono.Cecil.dll\r\n\r\n  To
      ThunderKit/Staging\\BepInExPack\\BepInExPack\\BepInEx\\core\\Mono.Cecil.dll\r\n\r\nFrom
      Packages\\BepInExPack\\BepInExPack\\BepInEx\\core\\Mono.Cecil.Mdb.dll\r\n\r\n
      \ To ThunderKit/Staging\\BepInExPack\\BepInExPack\\BepInEx\\core\\Mono.Cecil.Mdb.dll\r\n\r\nFrom
      Packages\\BepInExPack\\BepInExPack\\BepInEx\\core\\Mono.Cecil.Mdb.pdb\r\n\r\n
      \ To ThunderKit/Staging\\BepInExPack\\BepInExPack\\BepInEx\\core\\Mono.Cecil.Mdb.pdb\r\n\r\nFrom
      Packages\\BepInExPack\\BepInExPack\\BepInEx\\core\\Mono.Cecil.pdb\r\n\r\n  To
      ThunderKit/Staging\\BepInExPack\\BepInExPack\\BepInEx\\core\\Mono.Cecil.pdb\r\n\r\nFrom
      Packages\\BepInExPack\\BepInExPack\\BepInEx\\core\\Mono.Cecil.Pdb.dll\r\n\r\n
      \ To ThunderKit/Staging\\BepInExPack\\BepInExPack\\BepInEx\\core\\Mono.Cecil.Pdb.dll\r\n\r\nFrom
      Packages\\BepInExPack\\BepInExPack\\BepInEx\\core\\Mono.Cecil.Pdb.pdb\r\n\r\n
      \ To ThunderKit/Staging\\BepInExPack\\BepInExPack\\BepInEx\\core\\Mono.Cecil.Pdb.pdb\r\n\r\nFrom
      Packages\\BepInExPack\\BepInExPack\\BepInEx\\core\\Mono.Cecil.Rocks.dll\r\n\r\n
      \ To ThunderKit/Staging\\BepInExPack\\BepInExPack\\BepInEx\\core\\Mono.Cecil.Rocks.dll\r\n\r\nFrom
      Packages\\BepInExPack\\BepInExPack\\BepInEx\\core\\Mono.Cecil.Rocks.pdb\r\n\r\n
      \ To ThunderKit/Staging\\BepInExPack\\BepInExPack\\BepInEx\\core\\Mono.Cecil.Rocks.pdb\r\n\r\nFrom
      Packages\\BepInExPack\\BepInExPack\\BepInEx\\core\\MonoMod.RuntimeDetour.dll\r\n\r\n
      \ To ThunderKit/Staging\\BepInExPack\\BepInExPack\\BepInEx\\core\\MonoMod.RuntimeDetour.dll\r\n\r\nFrom
      Packages\\BepInExPack\\BepInExPack\\BepInEx\\core\\MonoMod.RuntimeDetour.xml\r\n\r\n
      \ To ThunderKit/Staging\\BepInExPack\\BepInExPack\\BepInEx\\core\\MonoMod.RuntimeDetour.xml\r\n\r\nFrom
      Packages\\BepInExPack\\BepInExPack\\BepInEx\\core\\MonoMod.Utils.dll\r\n\r\n
      \ To ThunderKit/Staging\\BepInExPack\\BepInExPack\\BepInEx\\core\\MonoMod.Utils.dll\r\n\r\nFrom
      Packages\\BepInExPack\\BepInExPack\\BepInEx\\core\\MonoMod.Utils.xml\r\n\r\n
      \ To ThunderKit/Staging\\BepInExPack\\BepInExPack\\BepInEx\\core\\MonoMod.Utils.xml"
  - logLevel: 0
    internalTime:
      ticks: 637738096427743029
    message: '[Stage(2 - StageDependencies)](assetlink://Assets%2fInvestorMod%2fInvestor+Survivor%2fStage.asset)
      Execute Job'
    context: []
  - logLevel: 0
    internalTime:
      ticks: 637738096427732931
    message: "[Stage(1 - StageAssemblies)](assetlink://Assets%2fInvestorMod%2fInvestor+Survivor%2fStage.asset)[InvestorManifest](assetlink://Assets%2fInvestorMod%2fInvestor+Survivor%2fInvestorManifest.asset)
      staging ``` ThunderKit/Libraries ``` in ``` ThunderKit/Staging/The Investor/plugins/The
      Investor ```\r\n"
    context:
    - "Assembly Files\r\nFrom: ThunderKit/Libraries\\InvestorAssemblyDef.pdb\r\n  To:
      ThunderKit/Staging/The Investor/plugins/The Investor/InvestorAssemblyDef.pdb\r\n\r\nFrom:
      ThunderKit/Libraries\\InvestorAssemblyDef.dll\r\n  To: ThunderKit/Staging/The
      Investor/plugins/The Investor/InvestorAssemblyDef.dll\r\n\r\n"
  - logLevel: 0
    internalTime:
      ticks: 637738096427322923
    message: '[Stage(1 - StageAssemblies)](assetlink://Assets%2fInvestorMod%2fInvestor+Survivor%2fStage.asset)[InvestorManifest](assetlink://Assets%2fInvestorMod%2fInvestor+Survivor%2fInvestorManifest.asset)
      Build Completed: ``` ThunderKit/Libraries/InvestorAssemblyDef.dll ```'
    context: []
  - logLevel: 1
    internalTime:
      ticks: 637738096427322923
    message: '[Stage(1 - StageAssemblies)](assetlink://Assets%2fInvestorMod%2fInvestor+Survivor%2fStage.asset)[InvestorManifest](assetlink://Assets%2fInvestorMod%2fInvestor+Survivor%2fInvestorManifest.asset)
      Assets\InvestorMod\Investor Survivor\Scripts\Components\InvestorController.cs(19,28):
      warning CS0649: Field ''InvestorController.dummyStateMachine'' is never assigned
      to, and will always have its default value null'
    context:
    - Assets\InvestorMod\Investor Survivor\Scripts\Components\InvestorController.cs
      (19:28)
  - logLevel: 1
    internalTime:
      ticks: 637738096427312836
    message: '[Stage(1 - StageAssemblies)](assetlink://Assets%2fInvestorMod%2fInvestor+Survivor%2fStage.asset)[InvestorManifest](assetlink://Assets%2fInvestorMod%2fInvestor+Survivor%2fInvestorManifest.asset)
      Assets\InvestorMod\Investor Survivor\Scripts\SkillStates\Investor\HireEnemy.cs(120,17):
      warning CS0649: Field ''HireEnemy.duration'' is never assigned to, and will
      always have its default value 0'
    context:
    - Assets\InvestorMod\Investor Survivor\Scripts\SkillStates\Investor\HireEnemy.cs
      (120:17)
  - logLevel: 1
    internalTime:
      ticks: 637738096427312836
    message: '[Stage(1 - StageAssemblies)](assetlink://Assets%2fInvestorMod%2fInvestor+Survivor%2fStage.asset)[InvestorManifest](assetlink://Assets%2fInvestorMod%2fInvestor+Survivor%2fInvestorManifest.asset)
      Assets\InvestorMod\Investor Survivor\Scripts\SkillStates\Investor\Lobby.cs(61,8):
      warning CS0618: ''NetworkServer'' is obsolete: ''The high level API classes
      are deprecated and will be removed in the future.'''
    context:
    - Assets\InvestorMod\Investor Survivor\Scripts\SkillStates\Investor\Lobby.cs (61:8)
  - logLevel: 1
    internalTime:
      ticks: 637738096427312836
    message: '[Stage(1 - StageAssemblies)](assetlink://Assets%2fInvestorMod%2fInvestor+Survivor%2fStage.asset)[InvestorManifest](assetlink://Assets%2fInvestorMod%2fInvestor+Survivor%2fInvestorManifest.asset)
      Assets\InvestorMod\Investor Survivor\Scripts\SkillStates\Investor\Employ.cs(134,9):
      warning CS0219: The variable ''success'' is assigned but its value is never
      used'
    context:
    - Assets\InvestorMod\Investor Survivor\Scripts\SkillStates\Investor\Employ.cs
      (134:9)
  - logLevel: 1
    internalTime:
      ticks: 637738096427312836
    message: '[Stage(1 - StageAssemblies)](assetlink://Assets%2fInvestorMod%2fInvestor+Survivor%2fStage.asset)[InvestorManifest](assetlink://Assets%2fInvestorMod%2fInvestor+Survivor%2fInvestorManifest.asset)
      Assets\InvestorMod\Investor Survivor\Scripts\Assets.cs(99,4): warning CS0162:
      Unreachable code detected'
    context:
    - Assets\InvestorMod\Investor Survivor\Scripts\Assets.cs (99:4)
  - logLevel: 1
    internalTime:
      ticks: 637738096427312836
    message: '[Stage(1 - StageAssemblies)](assetlink://Assets%2fInvestorMod%2fInvestor+Survivor%2fStage.asset)[InvestorManifest](assetlink://Assets%2fInvestorMod%2fInvestor+Survivor%2fInvestorManifest.asset)
      Assets\InvestorMod\Investor Survivor\Scripts\Assets.cs(89,5): warning CS0162:
      Unreachable code detected'
    context:
    - Assets\InvestorMod\Investor Survivor\Scripts\Assets.cs (89:5)
  - logLevel: 1
    internalTime:
      ticks: 637738096427312836
    message: '[Stage(1 - StageAssemblies)](assetlink://Assets%2fInvestorMod%2fInvestor+Survivor%2fStage.asset)[InvestorManifest](assetlink://Assets%2fInvestorMod%2fInvestor+Survivor%2fInvestorManifest.asset)
      Assets\InvestorMod\Investor Survivor\Scripts\SkillStates\BaseStates\DeathState.cs(38,8):
      warning CS0618: ''NetworkServer'' is obsolete: ''The high level API classes
      are deprecated and will be removed in the future.'''
    context:
    - Assets\InvestorMod\Investor Survivor\Scripts\SkillStates\BaseStates\DeathState.cs
      (38:8)
  - logLevel: 1
    internalTime:
      ticks: 637738096427312836
    message: '[Stage(1 - StageAssemblies)](assetlink://Assets%2fInvestorMod%2fInvestor+Survivor%2fStage.asset)[InvestorManifest](assetlink://Assets%2fInvestorMod%2fInvestor+Survivor%2fInvestorManifest.asset)
      Assets\InvestorMod\Investor Survivor\InvestorPlugin.cs(67,4): warning CS0618:
      ''ShaderConvert.ConvertAssetBundleShaders(AssetBundle, bool, bool)'' is obsolete:
      ''ShaderConvert will be removed in the future. Use ShaderConverter.ConvertStubbedShaders()
      instead.'''
    context:
    - Assets\InvestorMod\Investor Survivor\InvestorPlugin.cs (67:4)
  - logLevel: 1
    internalTime:
      ticks: 637738096427312836
    message: '[Stage(1 - StageAssemblies)](assetlink://Assets%2fInvestorMod%2fInvestor+Survivor%2fStage.asset)[InvestorManifest](assetlink://Assets%2fInvestorMod%2fInvestor+Survivor%2fInvestorManifest.asset)
      Assets\InvestorMod\Investor Survivor\Scripts\Assets.cs(34,5): warning CS0162:
      Unreachable code detected'
    context:
    - Assets\InvestorMod\Investor Survivor\Scripts\Assets.cs (34:5)
  - logLevel: 1
    internalTime:
      ticks: 637738096427312836
    message: '[Stage(1 - StageAssemblies)](assetlink://Assets%2fInvestorMod%2fInvestor+Survivor%2fStage.asset)[InvestorManifest](assetlink://Assets%2fInvestorMod%2fInvestor+Survivor%2fInvestorManifest.asset)
      Assets\InvestorMod\Investor Survivor\Scripts\SkillStates\Investor\InvestorPrimaryBaseThrow.cs(48,38):
      warning CS0618: ''NetworkReader'' is obsolete: ''The high level API classes
      are deprecated and will be removed in the future.'''
    context:
    - Assets\InvestorMod\Investor Survivor\Scripts\SkillStates\Investor\InvestorPrimaryBaseThrow.cs
      (48:38)
  - logLevel: 1
    internalTime:
      ticks: 637738096427312836
    message: '[Stage(1 - StageAssemblies)](assetlink://Assets%2fInvestorMod%2fInvestor+Survivor%2fStage.asset)[InvestorManifest](assetlink://Assets%2fInvestorMod%2fInvestor+Survivor%2fInvestorManifest.asset)
      Assets\InvestorMod\Investor Survivor\Scripts\SkillStates\Investor\InvestorPrimaryBaseThrow.cs(43,36):
      warning CS0618: ''NetworkWriter'' is obsolete: ''The high level API classes
      are deprecated and will be removed in the future.'''
    context:
    - Assets\InvestorMod\Investor Survivor\Scripts\SkillStates\Investor\InvestorPrimaryBaseThrow.cs
      (43:36)
  - logLevel: 1
    internalTime:
      ticks: 637738096427312836
    message: '[Stage(1 - StageAssemblies)](assetlink://Assets%2fInvestorMod%2fInvestor+Survivor%2fStage.asset)[InvestorManifest](assetlink://Assets%2fInvestorMod%2fInvestor+Survivor%2fInvestorManifest.asset)
      Assets\InvestorMod\Investor Survivor\Scripts\SkillStates\Investor\TaxEvasion.cs(5,7):
      warning CS0105: The using directive for ''UnityEngine'' appeared previously
      in this namespace'
    context:
    - Assets\InvestorMod\Investor Survivor\Scripts\SkillStates\Investor\TaxEvasion.cs
      (5:7)
  - logLevel: 1
    internalTime:
      ticks: 637738096427312836
    message: '[Stage(1 - StageAssemblies)](assetlink://Assets%2fInvestorMod%2fInvestor+Survivor%2fStage.asset)[InvestorManifest](assetlink://Assets%2fInvestorMod%2fInvestor+Survivor%2fInvestorManifest.asset)
      Assets\InvestorMod\Investor Survivor\InvestorPlugin.cs(10,31): warning CS0618:
      ''SecurityAction.RequestMinimum'' is obsolete: ''Assembly level declarative
      security is obsolete and is no longer enforced by the CLR by default. See http://go.microsoft.com/fwlink/?LinkID=155570
      for more information.'''
    context:
    - Assets\InvestorMod\Investor Survivor\InvestorPlugin.cs (10:31)
  - logLevel: 0
    internalTime:
      ticks: 637738096419892813
    message: '[Stage(1 - StageAssemblies)](assetlink://Assets%2fInvestorMod%2fInvestor+Survivor%2fStage.asset)[InvestorManifest](assetlink://Assets%2fInvestorMod%2fInvestor+Survivor%2fInvestorManifest.asset)
      Building : ThunderKit/Libraries/InvestorAssemblyDef.dll'
    context: []
  - logLevel: 1
    internalTime:
      ticks: 637738096418852564
    message: '[Stage(1 - StageAssemblies)](assetlink://Assets%2fInvestorMod%2fInvestor+Survivor%2fStage.asset)[R2API](assetlink://Packages%2ftristanmcpherson-r2api%2fR2API.asset)
      No AssemblyDefinitions found, skipping'
    context: []
  - logLevel: 1
    internalTime:
      ticks: 637738096418272433
    message: '[Stage(1 - StageAssemblies)](assetlink://Assets%2fInvestorMod%2fInvestor+Survivor%2fStage.asset)[HookGenPatcher](assetlink://Packages%2friskofthunder-hookgenpatcher%2fHookGenPatcher.asset)
      No AssemblyDefinitions found, skipping'
    context: []
  - logLevel: 1
    internalTime:
      ticks: 637738096417622291
    message: '[Stage(1 - StageAssemblies)](assetlink://Assets%2fInvestorMod%2fInvestor+Survivor%2fStage.asset)[BepInExPack](assetlink://Packages%2fbbepis-bepinexpack%2fBepInExPack.asset)
      No AssemblyDefinitions found, skipping'
    context: []
  - logLevel: 0
    internalTime:
      ticks: 637738096416812102
    message: '[Stage(1 - StageAssemblies)](assetlink://Assets%2fInvestorMod%2fInvestor+Survivor%2fStage.asset)
      Execute Job'
    context: []
  - logLevel: 0
    internalTime:
      ticks: 637738095883231094
    message: '[Stage(0 - StageAssetBundles)](assetlink://Assets%2fInvestorMod%2fInvestor+Survivor%2fStage.asset)[InvestorManifest](assetlink://Assets%2fInvestorMod%2fInvestor+Survivor%2fInvestorManifest.asset)
      Creating 1 AssetBundles'
    context:
    - "investorassetbundle\r\n[InvestorAssets](assetlink://Assets%2fInvestorMod%2fInvestor+Survivor%2fInvestorAssets.asset)\r\n\r\n[InvestorBody](assetlink://Assets%2fInvestorMod%2fInvestor+Survivor%2fInvestorAssets%2fInvestorBody.prefab)\r\n\r\n[InvestorDisplay](assetlink://Assets%2fInvestorMod%2fInvestor+Survivor%2fInvestorAssets%2fInvestorDisplay.prefab)\r\n\r\n[animInvestor](assetlink://Assets%2fInvestorMod%2fInvestor+Survivor%2fInvestorAssets%2fAnimations%2fanimInvestor.controller)\r\n\r\n[animInvestorMenu](assetlink://Assets%2fInvestorMod%2fInvestor+Survivor%2fInvestorAssets%2fAnimations%2fanimInvestorMenu.controller)\r\n\r\n[Armature_AimPitch](assetlink://Assets%2fInvestorMod%2fInvestor+Survivor%2fInvestorAssets%2fAnimations%2fArmature_AimPitch.anim)\r\n\r\n[Armature_AimYaw](assetlink://Assets%2fInvestorMod%2fInvestor+Survivor%2fInvestorAssets%2fAnimations%2fArmature_AimYaw.anim)\r\n\r\n[Armature_Ascend](assetlink://Assets%2fInvestorMod%2fInvestor+Survivor%2fInvestorAssets%2fAnimations%2fArmature_Ascend.anim)\r\n\r\n[Armature_CallPhone](assetlink://Assets%2fInvestorMod%2fInvestor+Survivor%2fInvestorAssets%2fAnimations%2fArmature_CallPhone.anim)\r\n\r\n[Armature_Descend](assetlink://Assets%2fInvestorMod%2fInvestor+Survivor%2fInvestorAssets%2fAnimations%2fArmature_Descend.anim)\r\n\r\n[Armature_Flinch](assetlink://Assets%2fInvestorMod%2fInvestor+Survivor%2fInvestorAssets%2fAnimations%2fArmature_Flinch.anim)\r\n\r\n[Armature_Idle](assetlink://Assets%2fInvestorMod%2fInvestor+Survivor%2fInvestorAssets%2fAnimations%2fArmature_Idle.anim)\r\n\r\n[Armature_IdleIn](assetlink://Assets%2fInvestorMod%2fInvestor+Survivor%2fInvestorAssets%2fAnimations%2fArmature_IdleIn.anim)\r\n\r\n[Armature_Jump](assetlink://Assets%2fInvestorMod%2fInvestor+Survivor%2fInvestorAssets%2fAnimations%2fArmature_Jump.anim)\r\n\r\n[Armature_MenuIdle](assetlink://Assets%2fInvestorMod%2fInvestor+Survivor%2fInvestorAssets%2fAnimations%2fArmature_MenuIdle.anim)\r\n\r\n[Armature_OnThePhone](assetlink://Assets%2fInvestorMod%2fInvestor+Survivor%2fInvestorAssets%2fAnimations%2fArmature_OnThePhone.anim)\r\n\r\n[Armature_PrimaryAttack_L](assetlink://Assets%2fInvestorMod%2fInvestor+Survivor%2fInvestorAssets%2fAnimations%2fArmature_PrimaryAttack_L.anim)\r\n\r\n[Armature_PrimaryAttack_R](assetlink://Assets%2fInvestorMod%2fInvestor+Survivor%2fInvestorAssets%2fAnimations%2fArmature_PrimaryAttack_R.anim)\r\n\r\n[Armature_RestIdle](assetlink://Assets%2fInvestorMod%2fInvestor+Survivor%2fInvestorAssets%2fAnimations%2fArmature_RestIdle.anim)\r\n\r\n[Armature_RestIdleIn](assetlink://Assets%2fInvestorMod%2fInvestor+Survivor%2fInvestorAssets%2fAnimations%2fArmature_RestIdleIn.anim)\r\n\r\n[Armature_SprintS](assetlink://Assets%2fInvestorMod%2fInvestor+Survivor%2fInvestorAssets%2fAnimations%2fArmature_SprintS.anim)\r\n\r\n[Armature_SprintW](assetlink://Assets%2fInvestorMod%2fInvestor+Survivor%2fInvestorAssets%2fAnimations%2fArmature_SprintW.anim)\r\n\r\n[Armature_TapPhoneScreen](assetlink://Assets%2fInvestorMod%2fInvestor+Survivor%2fInvestorAssets%2fAnimations%2fArmature_TapPhoneScreen.anim)\r\n\r\n[Armature_TPose](assetlink://Assets%2fInvestorMod%2fInvestor+Survivor%2fInvestorAssets%2fAnimations%2fArmature_TPose.anim)\r\n\r\n[Armature_WalkL](assetlink://Assets%2fInvestorMod%2fInvestor+Survivor%2fInvestorAssets%2fAnimations%2fArmature_WalkL.anim)\r\n\r\n[Armature_WalkR](assetlink://Assets%2fInvestorMod%2fInvestor+Survivor%2fInvestorAssets%2fAnimations%2fArmature_WalkR.anim)\r\n\r\n[Armature_WalkS](assetlink://Assets%2fInvestorMod%2fInvestor+Survivor%2fInvestorAssets%2fAnimations%2fArmature_WalkS.anim)\r\n\r\n[Armature_WalkW](assetlink://Assets%2fInvestorMod%2fInvestor+Survivor%2fInvestorAssets%2fAnimations%2fArmature_WalkW.anim)\r\n\r\n[mskInvestorAimPitch](assetlink://Assets%2fInvestorMod%2fInvestor+Survivor%2fInvestorAssets%2fAnimations%2fmskInvestorAimPitch.mask)\r\n\r\n[mskInvestorAimYaw](assetlink://Assets%2fInvestorMod%2fInvestor+Survivor%2fInvestorAssets%2fAnimations%2fmskInvestorAimYaw.mask)\r\n\r\n[mskInvestorArmLeft](assetlink://Assets%2fInvestorMod%2fInvestor+Survivor%2fInvestorAssets%2fAnimations%2fmskInvestorArmLeft.mask)\r\n\r\n[mskInvestorArmRight](assetlink://Assets%2fInvestorMod%2fInvestor+Survivor%2fInvestorAssets%2fAnimations%2fmskInvestorArmRight.mask)\r\n\r\n[mskInvestorBase](assetlink://Assets%2fInvestorMod%2fInvestor+Survivor%2fInvestorAssets%2fAnimations%2fmskInvestorBase.mask)\r\n\r\n[mskInvestorFlinch](assetlink://Assets%2fInvestorMod%2fInvestor+Survivor%2fInvestorAssets%2fAnimations%2fmskInvestorFlinch.mask)\r\n\r\n[mskInvestorGestureAdditive](assetlink://Assets%2fInvestorMod%2fInvestor+Survivor%2fInvestorAssets%2fAnimations%2fmskInvestorGestureAdditive.mask)\r\n\r\n[mskInvestorGestureOverride](assetlink://Assets%2fInvestorMod%2fInvestor+Survivor%2fInvestorAssets%2fAnimations%2fmskInvestorGestureOverride.mask)\r\n\r\n[mskInvestorImpact](assetlink://Assets%2fInvestorMod%2fInvestor+Survivor%2fInvestorAssets%2fAnimations%2fmskInvestorImpact.mask)\r\n\r\n[mdlInvestor](assetlink://Assets%2fInvestorMod%2fInvestor+Survivor%2fInvestorAssets%2fPrefab%2fmdlInvestor.prefab)\r\n\r\n[matInvestor](assetlink://Assets%2fInvestorMod%2fInvestor+Survivor%2fInvestorAssets%2fResources%2fmatInvestor.mat)\r\n\r\n[InvestorTest](assetlink://Assets%2fInvestorMod%2fInvestor+Survivor%2fFBX%2fInvestorTest.fbx)\r\n\r\n[famInvestorPrimary](assetlink://Assets%2fInvestorMod%2fInvestor+Survivor%2fDefinitions%2fSkills%2fFamilies%2ffamInvestorPrimary.asset)\r\n\r\n[famInvestorSecondary](assetlink://Assets%2fInvestorMod%2fInvestor+Survivor%2fDefinitions%2fSkills%2fFamilies%2ffamInvestorSecondary.asset)\r\n\r\n[InvestSkillDef](assetlink://Assets%2fInvestorMod%2fInvestor+Survivor%2fDefinitions%2fSkills%2fInvestSkillDef.asset)\r\n\r\n[famInvestorUtility](assetlink://Assets%2fInvestorMod%2fInvestor+Survivor%2fDefinitions%2fSkills%2fFamilies%2ffamInvestorUtility.asset)\r\n\r\n[LobbySkillDef](assetlink://Assets%2fInvestorMod%2fInvestor+Survivor%2fDefinitions%2fSkills%2fLobbySkillDef.asset)\r\n\r\n[famInvestorSpecial](assetlink://Assets%2fInvestorMod%2fInvestor+Survivor%2fDefinitions%2fSkills%2fFamilies%2ffamInvestorSpecial.asset)\r\n\r\n[Investor.SkillStates.ThrowSpareChange](assetlink://Assets%2fInvestorMod%2fInvestor+Survivor%2fDefinitions%2fSkills%2fStateConfigs%2fInvestor.SkillStates.ThrowSpareChange.asset)\r\n\r\n[ccpInvestor](assetlink://Assets%2fInvestorMod%2fInvestor+Survivor%2fDefinitions%2fccpInvestor.asset)\r\n\r\n[idrsInvestor](assetlink://Assets%2fInvestorMod%2fInvestor+Survivor%2fDefinitions%2fidrsInvestor.asset)\r\n\r\n[EmploySkillDef](assetlink://Assets%2fInvestorMod%2fInvestor+Survivor%2fDefinitions%2fSkills%2fEmploySkillDef.asset)\r\n\r\n[TaxEvasionSkillDef](assetlink://Assets%2fInvestorMod%2fInvestor+Survivor%2fDefinitions%2fSkills%2fTaxEvasionSkillDef.asset)\r\n\r\n[InvestorDef](assetlink://Assets%2fInvestorMod%2fInvestor+Survivor%2fDefinitions%2fInvestorDef.asset)\r\n\r\n[ThrowCoinsSkillDef](assetlink://Assets%2fInvestorMod%2fInvestor+Survivor%2fDefinitions%2fSkills%2fThrowCoinsSkillDef.asset)\r\n\r\n[Investor.SkillStates.Lobby](assetlink://Assets%2fInvestorMod%2fInvestor+Survivor%2fDefinitions%2fSkills%2fStateConfigs%2fInvestor.SkillStates.Lobby.asset)\r\n\r\n[Investor.SkillStates.Employ](assetlink://Assets%2fInvestorMod%2fInvestor+Survivor%2fDefinitions%2fSkills%2fStateConfigs%2fInvestor.SkillStates.Employ.asset)\r\n\r\n[stubbed_hgstandard](assetlink://Assets%2fStubbedShaders%2fdeferred%2fstubbed_hgstandard.shader)\r\n\r\n\r\n"
  - logLevel: 0
    internalTime:
      ticks: 637738095870082248
    message: '[Stage(0 - StageAssetBundles)](assetlink://Assets%2fInvestorMod%2fInvestor+Survivor%2fStage.asset)
      Execute Job'
    context: []
  - logLevel: 0
    internalTime:
      ticks: 637738095870052243
    message: '[Stage](assetlink://Assets%2fInvestorMod%2fInvestor+Survivor%2fStage.asset)
      Clearing PipelineJob error states'
    context: []
  - logLevel: 0
    internalTime:
      ticks: 637738095870012224
    message: '[Stage](assetlink://Assets%2fInvestorMod%2fInvestor+Survivor%2fStage.asset)
      Execute Pipeline'
    context: []
